%YAML 1.1
%TAG !u! tag:unity3d.com,2011:
--- !u!1 &6169496645343259144
GameObject:
  m_ObjectHideFlags: 0
  m_CorrespondingSourceObject: {fileID: 0}
  m_PrefabInstance: {fileID: 0}
  m_PrefabAsset: {fileID: 0}
  serializedVersion: 6
  m_Component:
  - component: {fileID: 6169496645343259191}
  - component: {fileID: 6169496645343259188}
  - component: {fileID: 6169496645343259145}
  m_Layer: 0
  m_Name: GrabActuator
  m_TagString: Untagged
  m_Icon: {fileID: 0}
  m_NavMeshLayer: 0
  m_StaticEditorFlags: 0
  m_IsActive: 1
--- !u!4 &6169496645343259191
Transform:
  m_ObjectHideFlags: 0
  m_CorrespondingSourceObject: {fileID: 0}
  m_PrefabInstance: {fileID: 0}
  m_PrefabAsset: {fileID: 0}
  m_GameObject: {fileID: 6169496645343259144}
  m_LocalRotation: {x: -0, y: -0, z: -0, w: 1}
  m_LocalPosition: {x: 0, y: 0, z: 0}
  m_LocalScale: {x: 1, y: 1, z: 1}
  m_ConstrainProportionsScale: 0
  m_Children:
  - {fileID: 6109793471148878032}
  m_Father: {fileID: 0}
  m_RootOrder: -1
  m_LocalEulerAnglesHint: {x: 0, y: 0, z: 0}
--- !u!54 &6169496645343259188
Rigidbody:
  m_ObjectHideFlags: 0
  m_CorrespondingSourceObject: {fileID: 0}
  m_PrefabInstance: {fileID: 0}
  m_PrefabAsset: {fileID: 0}
  m_GameObject: {fileID: 6169496645343259144}
  serializedVersion: 2
  m_Mass: 100
  m_Drag: 0
  m_AngularDrag: 0
  m_UseGravity: 0
  m_IsKinematic: 1
  m_Interpolate: 0
  m_Constraints: 0
  m_CollisionDetection: 0
--- !u!114 &6169496645343259145
MonoBehaviour:
  m_ObjectHideFlags: 0
  m_CorrespondingSourceObject: {fileID: 0}
  m_PrefabInstance: {fileID: 0}
  m_PrefabAsset: {fileID: 0}
  m_GameObject: {fileID: 6169496645343259144}
  m_Enabled: 1
  m_EditorHideFlags: 0
  m_Script: {fileID: 11500000, guid: 155ddcb0b62a70946bb2a55ab4681aa7, type: 3}
  m_Name: 
  m_EditorClassIdentifier: 
  <TransformToFollow>k__BackingField: {fileID: 0}
--- !u!1001 &1314987361188352691
PrefabInstance:
  m_ObjectHideFlags: 0
  serializedVersion: 2
  m_Modification:
    serializedVersion: 2
    m_TransformParent: {fileID: 6169496645343259191}
    m_Modifications:
    - target: {fileID: 5113167515678603875, guid: e4c781fcec9a7fe4583d483f7b7d6b22,
        type: 3}
      propertyPath: m_RootOrder
      value: -1
      objectReference: {fileID: 0}
    - target: {fileID: 5113167515678603875, guid: e4c781fcec9a7fe4583d483f7b7d6b22,
        type: 3}
      propertyPath: m_LocalPosition.x
      value: 0
      objectReference: {fileID: 0}
    - target: {fileID: 5113167515678603875, guid: e4c781fcec9a7fe4583d483f7b7d6b22,
        type: 3}
      propertyPath: m_LocalPosition.y
      value: 0
      objectReference: {fileID: 0}
    - target: {fileID: 5113167515678603875, guid: e4c781fcec9a7fe4583d483f7b7d6b22,
        type: 3}
      propertyPath: m_LocalPosition.z
      value: 0
      objectReference: {fileID: 0}
    - target: {fileID: 5113167515678603875, guid: e4c781fcec9a7fe4583d483f7b7d6b22,
        type: 3}
      propertyPath: m_LocalRotation.w
      value: 1
      objectReference: {fileID: 0}
    - target: {fileID: 5113167515678603875, guid: e4c781fcec9a7fe4583d483f7b7d6b22,
        type: 3}
      propertyPath: m_LocalRotation.x
      value: -0
      objectReference: {fileID: 0}
    - target: {fileID: 5113167515678603875, guid: e4c781fcec9a7fe4583d483f7b7d6b22,
        type: 3}
      propertyPath: m_LocalRotation.y
      value: -0
      objectReference: {fileID: 0}
    - target: {fileID: 5113167515678603875, guid: e4c781fcec9a7fe4583d483f7b7d6b22,
        type: 3}
      propertyPath: m_LocalRotation.z
      value: -0
      objectReference: {fileID: 0}
    - target: {fileID: 5113167515678603875, guid: e4c781fcec9a7fe4583d483f7b7d6b22,
        type: 3}
      propertyPath: m_LocalEulerAnglesHint.x
      value: 0
      objectReference: {fileID: 0}
    - target: {fileID: 5113167515678603875, guid: e4c781fcec9a7fe4583d483f7b7d6b22,
        type: 3}
      propertyPath: m_LocalEulerAnglesHint.y
      value: 0
      objectReference: {fileID: 0}
    - target: {fileID: 5113167515678603875, guid: e4c781fcec9a7fe4583d483f7b7d6b22,
        type: 3}
      propertyPath: m_LocalEulerAnglesHint.z
      value: 0
      objectReference: {fileID: 0}
    - target: {fileID: 8951601531915356696, guid: e4c781fcec9a7fe4583d483f7b7d6b22,
        type: 3}
      propertyPath: m_Name
      value: DebugHandle
      objectReference: {fileID: 0}
    - target: {fileID: 8951601531915356696, guid: e4c781fcec9a7fe4583d483f7b7d6b22,
        type: 3}
      propertyPath: m_IsActive
      value: 0
      objectReference: {fileID: 0}
    m_RemovedComponents: []
    m_AddedGameObjects: []
  m_SourcePrefab: {fileID: 100100000, guid: e4c781fcec9a7fe4583d483f7b7d6b22, type: 3}
--- !u!4 &6109793471148878032 stripped
Transform:
  m_CorrespondingSourceObject: {fileID: 5113167515678603875, guid: e4c781fcec9a7fe4583d483f7b7d6b22,
    type: 3}
  m_PrefabInstance: {fileID: 1314987361188352691}
  m_PrefabAsset: {fileID: 0}
