%YAML 1.1
%TAG !u! tag:unity3d.com,2011:
--- !u!1045 &1
EditorBuildSettings:
  m_ObjectHideFlags: 0
  serializedVersion: 2
  m_Scenes:
  - enabled: 1
    path: Assets/_ProjectAssets/Scenes/SampleScene.unity
    guid: 99c9720ab356a0642a771bea13969a05
  m_configObjects:
    Unity.XR.Oculus.Settings: {fileID: 11400000, guid: 03b732fef4950c84693e936b2d770c7a,
      type: 2}
    com.unity.xr.management.loader_settings: {fileID: 11400000, guid: 780edc20cf629894dbbaa6de45c13ef5,
      type: 2}
