# This file uses centimeters as units for non-parametric coordinates.

mtllib Bag.mtl
g default
v 0.129547 -0.004345 0.107105
v 0.024968 -0.007903 0.112623
v -0.071227 -0.004698 0.098804
v -0.168193 0.000288 0.087570
v -0.177238 0.007806 -0.084687
v -0.194236 0.073858 -0.095830
v -0.081144 0.101661 -0.085009
v 0.027417 0.106334 -0.087703
v 0.172969 0.062869 -0.082485
v 0.187841 0.073611 0.103623
v 0.189492 0.006366 0.102514
v 0.108743 0.084633 0.098196
v 0.018144 0.084008 0.102257
v -0.087651 0.086169 0.089712
v -0.182610 0.062073 0.090408
v 0.106711 0.095020 -0.082247
v -0.093295 -0.013114 -0.098639
v -0.002716 -0.012368 -0.102314
v 0.103036 -0.014247 -0.088734
v 0.171120 -0.015576 -0.072152
v -0.201973 0.045216 -0.109324
v -0.091112 0.040229 -0.123427
v 0.013622 0.043080 -0.128963
v 0.111340 0.036769 -0.116669
v 0.188302 0.027800 -0.099023
v 0.204738 0.045003 0.122485
v 0.124942 0.044403 0.124232
v 0.021922 0.042091 0.130199
v -0.084302 0.044601 0.115361
v -0.191552 0.035352 0.106811
v -0.196275 0.004098 0.001728
v -0.087516 -0.009039 0.005827
v 0.011749 -0.010091 0.011219
v 0.123479 -0.008987 0.015355
v 0.204000 -0.004106 0.017493
v 0.208910 0.036944 0.013620
v 0.182228 0.081312 0.008235
v 0.107932 0.102706 0.009186
v 0.022311 0.107951 0.008531
v -0.085616 0.106713 0.003477
v -0.190264 0.080762 -0.001535
v -0.208979 0.039789 -0.000261
vt 0.551579 0.098376
vt 0.561703 0.101223
vt 0.571718 0.109979
vt 0.562856 0.107459
vt 0.595881 0.099430
vt 0.581026 0.112623
vt 0.572340 0.104215
vt 0.586334 0.092245
vt 0.575138 0.070556
vt 0.585030 0.073692
vt 0.576502 0.088287
vt 0.567144 0.084519
vt 0.605752 0.084252
vt 0.595424 0.076982
vt 0.585357 0.055891
vt 0.594314 0.059909
vt 0.612357 0.071896
vt 0.603720 0.064127
vt 0.585518 0.043725
vt 0.596658 0.047852
vt 0.614624 0.060193
vt 0.608360 0.052186
vt 0.621226 0.079872
vt 0.621050 0.068416
vt 0.616357 0.091718
vt 0.605682 0.106805
vt 0.589940 0.121260
vt 0.581996 0.118968
vt 0.574431 0.116788
vt 0.926226 0.214642
vt 0.917396 0.217152
vt 0.927344 0.208413
vt 0.934909 0.206230
vt 0.950650 0.220685
vt 0.941103 0.227870
vt 0.930497 0.253640
vt 0.921945 0.239013
vt 0.931302 0.235245
vt 0.940393 0.250508
vt 0.961326 0.235772
vt 0.950998 0.243045
vt 0.939735 0.267377
vt 0.948689 0.263363
vt 0.966194 0.247618
vt 0.957557 0.255387
vt 0.942189 0.279431
vt 0.953328 0.275304
vt 0.966018 0.259074
vt 0.959758 0.267082
vt 0.907184 0.226123
vt 0.917308 0.223275
vt 0.930325 0.271599
vt 0.930487 0.283765
vt 0.920107 0.256934
vt 0.912113 0.242971
vt 0.896547 0.229114
vt 0.908123 0.219788
vt 0.919400 0.210702
vn -0.553068 -0.531240 0.641795
vn -0.683241 0.012998 0.730077
vn -0.996932 -0.057695 0.052896
vn -0.870098 -0.492372 0.022359
vn -0.131867 0.987183 0.089891
vn -0.650027 0.755326 0.083354
vn -0.489860 0.732038 0.473453
vn -0.128287 0.805502 0.578541
vn -0.040086 -0.336244 0.940921
vn -0.039768 0.116878 0.992350
vn -0.122826 0.084111 0.988858
vn -0.110201 -0.380677 0.918118
vn 0.022495 0.995140 0.095870
vn -0.131867 0.987183 0.089891
vn -0.128287 0.805502 0.578541
vn -0.012928 0.817299 0.576068
vn 0.067575 -0.362280 0.929617
vn 0.052580 0.107814 0.992780
vn -0.039768 0.116878 0.992350
vn -0.040086 -0.336244 0.940921
vn 0.174118 0.983950 0.039058
vn 0.022495 0.995140 0.095870
vn -0.012928 0.817299 0.576068
vn 0.077080 0.831601 0.549999
vn 0.067575 -0.362280 0.929617
vn 0.073633 -0.397303 0.914729
vn 0.051501 0.087964 0.994791
vn 0.052580 0.107814 0.992780
vn 0.279715 0.960006 -0.012164
vn 0.174118 0.983950 0.039058
vn 0.077080 0.831601 0.549999
vn 0.120312 0.839201 0.530346
vn -0.110201 -0.380677 0.918118
vn -0.122826 0.084111 0.988858
vn -0.683241 0.012998 0.730077
vn -0.553068 -0.531240 0.641795
vn 0.052580 0.107814 0.992780
vn 0.051501 0.087964 0.994791
vn 0.120312 0.839201 0.530346
vn 0.077080 0.831601 0.549999
vn -0.039768 0.116878 0.992350
vn 0.052580 0.107814 0.992780
vn 0.077080 0.831601 0.549999
vn -0.012928 0.817299 0.576068
vn -0.122826 0.084111 0.988858
vn -0.039768 0.116878 0.992350
vn -0.012928 0.817299 0.576068
vn -0.128287 0.805502 0.578541
vn -0.683241 0.012998 0.730077
vn -0.122826 0.084111 0.988858
vn -0.128287 0.805502 0.578541
vn -0.489860 0.732038 0.473453
vn -0.650027 0.755326 0.083354
vn -0.996932 -0.057695 0.052896
vn -0.683241 0.012998 0.730077
vn -0.489860 0.732038 0.473453
vn 0.228348 0.968334 -0.100925
vn 0.174118 0.983950 0.039058
vn 0.279715 0.960006 -0.012164
vn 0.350687 0.923958 -0.152711
vn 0.037407 0.998400 -0.042396
vn 0.022495 0.995140 0.095870
vn 0.174118 0.983950 0.039058
vn 0.228348 0.968334 -0.100925
vn -0.131569 0.989991 -0.051057
vn -0.131867 0.987183 0.089891
vn 0.022495 0.995140 0.095870
vn 0.037407 0.998400 -0.042396
vn -0.660001 0.749884 -0.045529
vn -0.650027 0.755326 0.083354
vn -0.131867 0.987183 0.089891
vn -0.131569 0.989991 -0.051057
vn -0.993624 -0.073692 -0.085333
vn -0.996932 -0.057695 0.052896
vn -0.650027 0.755326 0.083354
vn -0.660001 0.749884 -0.045529
vn -0.870098 -0.492372 0.022359
vn -0.996932 -0.057695 0.052896
vn -0.993624 -0.073692 -0.085333
vn -0.860378 -0.490743 -0.137555
vn 0.614906 -0.788237 0.023942
vn 0.990468 0.111829 -0.080419
vn 0.989210 0.133541 0.060247
vn 0.642959 -0.755648 0.124901
vn 0.642959 -0.755648 0.124901
vn 0.066681 -0.995869 0.061632
vn 0.035086 -0.997560 0.060359
vn 0.614906 -0.788237 0.023942
vn 0.040991 0.048262 -0.997993
vn 0.184013 0.006439 -0.982903
vn 0.076134 -0.880218 -0.468423
vn 0.014656 -0.859678 -0.510626
vn 0.066681 -0.995869 0.061632
vn -0.001842 -0.999375 0.035295
vn -0.003005 -0.999421 0.033886
vn 0.035086 -0.997560 0.060359
vn -0.097969 0.036028 -0.994537
vn 0.040991 0.048262 -0.997993
vn 0.014656 -0.859678 -0.510626
vn -0.117253 -0.853949 -0.506974
vn -0.001842 -0.999375 0.035295
vn -0.057541 -0.997852 0.031317
vn -0.073035 -0.997119 0.020468
vn -0.003005 -0.999421 0.033886
vn -0.146997 0.001371 -0.989136
vn -0.097969 0.036028 -0.994537
vn -0.117253 -0.853949 -0.506974
vn -0.206909 -0.849251 -0.485759
vn -0.057541 -0.997852 0.031317
vn -0.089591 -0.995660 0.025186
vn -0.132206 -0.991194 0.007488
vn -0.073035 -0.997119 0.020468
vn 0.184013 0.006439 -0.982903
vn 0.726067 0.045806 -0.686097
vn 0.466454 -0.783816 -0.409943
vn 0.076134 -0.880218 -0.468423
vn -0.057932 0.526376 -0.848276
vn -0.097969 0.036028 -0.994537
vn -0.146997 0.001371 -0.989136
vn -0.064324 0.507773 -0.859086
vn -0.057932 0.526376 -0.848276
vn 0.042539 0.532941 -0.845082
vn 0.040991 0.048262 -0.997993
vn -0.097969 0.036028 -0.994537
vn 0.042539 0.532941 -0.845082
vn 0.191126 0.511227 -0.837925
vn 0.184013 0.006439 -0.982903
vn 0.040991 0.048262 -0.997993
vn 0.191126 0.511227 -0.837925
vn 0.613997 0.548467 -0.567619
vn 0.726067 0.045806 -0.686097
vn 0.184013 0.006439 -0.982903
vn 0.990468 0.111829 -0.080419
vn 0.861734 0.497539 -0.099343
vn 0.859552 0.511000 -0.006960
vn 0.989210 0.133541 0.060247
vn -0.073035 -0.997119 0.020468
vn -0.132206 -0.991194 0.007488
vn -0.206909 -0.849251 -0.485759
vn -0.117253 -0.853949 -0.506974
vn -0.003005 -0.999421 0.033886
vn -0.073035 -0.997119 0.020468
vn -0.117253 -0.853949 -0.506974
vn 0.014656 -0.859678 -0.510626
vn 0.035086 -0.997560 0.060359
vn -0.003005 -0.999421 0.033886
vn 0.014656 -0.859678 -0.510626
vn 0.076134 -0.880218 -0.468423
vn 0.614906 -0.788237 0.023942
vn 0.035086 -0.997560 0.060359
vn 0.076134 -0.880218 -0.468423
vn 0.466454 -0.783816 -0.409943
vn 0.726067 0.045806 -0.686097
vn 0.990468 0.111829 -0.080419
vn 0.614906 -0.788237 0.023942
vn 0.466454 -0.783816 -0.409943
vn 0.613997 0.548467 -0.567619
vn 0.861734 0.497539 -0.099343
vn 0.990468 0.111829 -0.080419
vn 0.726067 0.045806 -0.686097
s off
g Bag
usemtl PropsPacked:blinn1SG
f 4/1/1 30/2/2 42/3/3 31/4/4
f 40/5/5 41/6/6 15/7/7 14/8/8
f 2/9/9 28/10/10 29/11/11 3/12/12
f 39/13/13 40/5/14 14/8/15 13/14/16
f 1/15/17 27/16/18 28/10/19 2/9/20
f 38/17/21 39/13/22 13/14/23 12/18/24
f 1/15/25 11/19/26 26/20/27 27/16/28
f 37/21/29 38/17/30 12/18/31 10/22/32
f 3/12/33 29/11/34 30/2/35 4/1/36
f 27/16/37 26/20/38 10/22/39 12/18/40
f 28/10/41 27/16/42 12/18/43 13/14/44
f 29/11/45 28/10/46 13/14/47 14/8/48
f 30/2/49 29/11/50 14/8/51 15/7/52
f 41/6/53 42/3/54 30/2/55 15/7/56
f 16/23/57 38/17/58 37/21/59 9/24/60
f 8/25/61 39/13/62 38/17/63 16/23/64
f 7/26/65 40/5/66 39/13/67 8/25/68
f 6/27/69 41/6/70 40/5/71 7/26/72
f 21/28/73 42/3/74 41/6/75 6/27/76
f 31/4/77 42/3/78 21/28/79 5/29/80
f 35/30/81 36/31/82 26/32/83 11/33/84
f 11/33/85 1/34/86 34/35/87 35/30/88
f 23/36/89 24/37/90 19/38/91 18/39/92
f 1/34/93 2/40/94 33/41/95 34/35/96
f 22/42/97 23/36/98 18/39/99 17/43/100
f 2/40/101 3/44/102 32/45/103 33/41/104
f 21/46/105 22/42/106 17/43/107 5/47/108
f 3/44/109 4/48/110 31/49/111 32/45/112
f 24/37/113 25/50/114 20/51/115 19/38/116
f 7/52/117 22/42/118 21/46/119 6/53/120
f 7/52/121 8/54/122 23/36/123 22/42/124
f 8/54/125 16/55/126 24/37/127 23/36/128
f 16/55/129 9/56/130 25/50/131 24/37/132
f 36/31/133 37/57/134 10/58/135 26/32/136
f 32/45/137 31/49/138 5/47/139 17/43/140
f 33/41/141 32/45/142 17/43/143 18/39/144
f 34/35/145 33/41/146 18/39/147 19/38/148
f 35/30/149 34/35/150 19/38/151 20/51/152
f 25/50/153 36/31/154 35/30/155 20/51/156
f 9/56/157 37/57/158 36/31/159 25/50/160
