# This file uses centimeters as units for non-parametric coordinates.

mtllib Vase5.mtl
g default
v -0.163263 0.203187 -0.000032
v 0.155955 0.130231 -0.000032
v -0.152588 0.124655 -0.000032
v -0.111025 0.067639 -0.000032
v -0.000000 0.000000 0.000000
v 0.108479 0.067639 -0.000032
v 0.155952 0.208603 -0.000032
v 0.079103 0.320437 -0.000032
v 0.075711 0.362212 -0.000032
v -0.075727 0.362212 -0.000032
v -0.076980 0.320437 -0.000032
v -0.130960 0.275663 -0.000032
v 0.132644 0.275667 -0.000032
v 0.083117 0.208600 0.133621
v -0.087536 0.208600 0.133621
v 0.076383 0.130231 0.115251
v -0.081741 0.130231 0.115251
v -0.050949 0.067639 0.074270
v 0.049733 0.067639 0.074270
v 0.047100 0.320437 0.073445
v 0.042112 0.362212 0.073445
v -0.038526 0.320437 0.073445
v -0.037820 0.362212 0.073445
v 0.075154 0.275663 0.115251
v -0.064779 0.275663 0.115251
v 0.083117 0.208600 -0.133686
v -0.087536 0.208600 -0.133686
v 0.076383 0.130231 -0.115316
v -0.081741 0.130231 -0.115316
v -0.050949 0.067639 -0.074335
v 0.049733 0.067639 -0.074335
v 0.047100 0.320437 -0.073510
v 0.042112 0.362212 -0.073510
v -0.038526 0.320437 -0.073510
v -0.037820 0.362212 -0.073510
v 0.075154 0.275663 -0.115316
v -0.064779 0.275663 -0.115316
v -0.140695 0.204390 -0.000032
v 0.133382 0.128379 -0.000032
v -0.131528 0.122569 -0.000032
v -0.095845 0.063165 -0.000032
v -0.000536 0.054448 -0.000032
v 0.092619 0.063165 -0.000032
v 0.133379 0.210031 -0.000032
v 0.064091 0.327373 -0.000032
v -0.063304 0.327373 -0.000032
v -0.112957 0.279897 -0.000032
v 0.113368 0.279900 -0.000032
v 0.070845 0.210028 0.116517
v -0.075677 0.210028 0.116517
v 0.065065 0.128376 0.100498
v -0.070702 0.128376 0.100498
v -0.044262 0.063165 0.064761
v 0.042180 0.063165 0.064761
v 0.037971 0.327373 0.060878
v -0.031914 0.327373 0.060878
v 0.064008 0.279897 0.100498
v -0.056134 0.279897 0.100498
v 0.070845 0.210028 -0.116582
v -0.075677 0.210028 -0.116582
v 0.065065 0.128376 -0.100562
v -0.070702 0.128376 -0.100562
v -0.044262 0.063165 -0.064826
v 0.042180 0.063165 -0.064826
v 0.037971 0.327373 -0.060943
v -0.031914 0.327373 -0.060943
v 0.064008 0.279897 -0.100562
v -0.056134 0.279897 -0.100562
v 0.061960 0.359217 -0.000032
v 0.034839 0.359214 0.060878
v -0.031472 0.359214 0.060878
v -0.062520 0.359214 -0.000032
v -0.031472 0.359214 -0.060943
v 0.034839 0.359214 -0.060943
v -0.127446 -0.001691 -0.000032
v -0.067521 -0.001691 0.104827
v 0.066855 -0.001691 0.104827
v 0.127918 -0.001691 -0.000032
v 0.066855 -0.001691 -0.104892
v -0.067521 -0.001691 -0.104892
vt 0.105544 0.106430
vt 0.115212 0.099783
vt 0.126330 0.100619
vt 0.114425 0.107069
vt 0.159799 0.121471
vt 0.176396 0.103135
vt 0.190635 0.103212
vt 0.179998 0.115689
vt 0.125167 0.115473
vt 0.139090 0.102007
vt 0.156912 0.103942
vt 0.137745 0.121471
vt 0.215872 0.106655
vt 0.199966 0.116659
vt 0.140589 0.083070
vt 0.155548 0.080251
vt 0.174965 0.079310
vt 0.190275 0.081721
vt 0.215824 0.080117
vt 0.115250 0.077816
vt 0.127511 0.085539
vt 0.114425 0.085596
vt 0.105223 0.078052
vt 0.143744 0.061579
vt 0.128899 0.067866
vt 0.167866 0.064854
vt 0.178749 0.069753
vt 0.199054 0.068120
vt 0.211252 0.073849
vt 0.211680 0.112025
vt 0.126330 0.100619
vt 0.115212 0.099783
vt 0.190635 0.103212
vt 0.176396 0.103135
vt 0.156912 0.103942
vt 0.139090 0.102007
vt 0.215872 0.106655
vt 0.155548 0.080251
vt 0.140589 0.083070
vt 0.174965 0.079310
vt 0.190275 0.081721
vt 0.215824 0.080117
vt 0.114425 0.085596
vt 0.127511 0.085539
vt 0.211469 0.092939
vt 0.107591 0.106578
vt 0.114425 0.107069
vt 0.126330 0.100619
vt 0.117776 0.099975
vt 0.159799 0.121471
vt 0.179998 0.115689
vt 0.190635 0.103212
vt 0.176396 0.103135
vt 0.125167 0.115473
vt 0.137745 0.121471
vt 0.156912 0.103942
vt 0.139090 0.102007
vt 0.211469 0.092939
vt 0.155548 0.080251
vt 0.140589 0.083070
vt 0.174965 0.079310
vt 0.190275 0.081721
vt 0.115250 0.077816
vt 0.107533 0.077999
vt 0.117440 0.085582
vt 0.127511 0.085539
vt 0.143744 0.061579
vt 0.128899 0.067866
vt 0.167866 0.064854
vt 0.178749 0.069753
vt 0.117776 0.099975
vt 0.126330 0.100619
vt 0.176396 0.103135
vt 0.190635 0.103212
vt 0.139090 0.102007
vt 0.156912 0.103942
vt 0.140589 0.083070
vt 0.155548 0.080251
vt 0.174965 0.079310
vt 0.190275 0.081721
vt 0.127511 0.085539
vt 0.117440 0.085582
vn 0.909340 0.091195 0.405936
vn 0.542286 0.054385 0.838432
vn 0.474916 0.458907 0.750906
vn 0.821032 0.429704 0.375846
vn 0.784084 -0.337833 0.520654
vn 0.433198 -0.407871 0.803729
vn 0.462619 -0.120150 0.878378
vn 0.813459 -0.130634 0.566762
vn 0.770724 0.505924 0.387331
vn 0.431484 0.557968 0.708868
vn 0.505025 0.059079 0.861080
vn 0.866624 0.083087 0.491995
vn 0.505025 0.059079 0.861080
vn 0.433198 -0.407871 0.803729
vn 0.784084 -0.337833 0.520654
vn 0.866624 0.083087 0.491995
vn 0.813459 -0.130634 0.566762
vn 0.462619 -0.120150 0.878378
vn 0.383443 -0.600016 0.702106
vn 0.684383 -0.569146 0.455734
vn 0.431484 0.557968 0.708868
vn -0.404748 0.578929 0.707828
vn -0.494942 0.079381 0.865293
vn 0.505025 0.059079 0.861080
vn -0.494942 0.079381 0.865293
vn -0.432031 -0.424885 0.795501
vn 0.433198 -0.407871 0.803729
vn 0.505025 0.059079 0.861080
vn 0.462619 -0.120150 0.878378
vn 0.433198 -0.407871 0.803729
vn -0.432031 -0.424885 0.795501
vn -0.463652 -0.129579 0.876491
vn -0.382894 -0.604239 0.698776
vn 0.383443 -0.600016 0.702106
vn 0.462619 -0.120150 0.878378
vn -0.463652 -0.129579 0.876491
vn -0.810594 0.394578 0.432718
vn -0.459924 0.432782 0.775352
vn -0.518999 0.012163 0.854688
vn -0.887165 0.020790 0.460984
vn -0.859369 0.119175 0.497275
vn -0.494942 0.079381 0.865293
vn -0.404748 0.578929 0.707828
vn -0.726201 0.555645 0.404835
vn -0.859369 0.119175 0.497275
vn -0.779852 -0.368364 0.506102
vn -0.432031 -0.424885 0.795501
vn -0.494942 0.079381 0.865293
vn -0.463652 -0.129579 0.876491
vn -0.432031 -0.424885 0.795501
vn -0.779852 -0.368364 0.506102
vn -0.813855 -0.146934 0.562184
vn -0.679566 -0.577049 0.452995
vn -0.382894 -0.604239 0.698776
vn -0.463652 -0.129579 0.876491
vn -0.813855 -0.146934 0.562184
vn 0.542286 0.054385 0.838432
vn -0.518999 0.012163 0.854688
vn -0.459924 0.432782 0.775352
vn 0.474916 0.458907 0.750906
vn -0.459924 0.432782 0.775352
vn -0.810594 0.394578 0.432718
vn -0.726201 0.555645 0.404835
vn -0.404748 0.578929 0.707828
vn 0.770724 0.505924 0.387331
vn 0.821032 0.429704 0.375846
vn 0.474916 0.458907 0.750906
vn 0.431484 0.557968 0.708868
vn -0.459924 0.432782 0.775352
vn -0.404748 0.578929 0.707828
vn 0.431484 0.557968 0.708868
vn 0.474916 0.458907 0.750906
vn -0.000036 -0.999780 0.020999
vn -0.382894 -0.604239 0.698776
vn -0.679566 -0.577049 0.452995
vn -0.000036 -0.999780 0.020999
vn 0.383443 -0.600016 0.702106
vn -0.382894 -0.604239 0.698776
vn 0.684383 -0.569146 0.455734
vn 0.383443 -0.600016 0.702106
vn -0.000036 -0.999780 0.020999
vn 0.909340 0.091195 -0.405936
vn 0.821032 0.429704 -0.375846
vn 0.474916 0.458906 -0.750906
vn 0.542286 0.054385 -0.838432
vn 0.784084 -0.337833 -0.520654
vn 0.813459 -0.130634 -0.566762
vn 0.462619 -0.120150 -0.878378
vn 0.433198 -0.407871 -0.803729
vn 0.770724 0.505924 -0.387331
vn 0.866624 0.083087 -0.491995
vn 0.505025 0.059079 -0.861080
vn 0.431484 0.557968 -0.708868
vn 0.505025 0.059079 -0.861080
vn 0.866624 0.083087 -0.491995
vn 0.784084 -0.337833 -0.520654
vn 0.433198 -0.407871 -0.803729
vn 0.813459 -0.130634 -0.566762
vn 0.684383 -0.569146 -0.455734
vn 0.383443 -0.600016 -0.702106
vn 0.462619 -0.120150 -0.878378
vn 0.431484 0.557968 -0.708868
vn 0.505025 0.059079 -0.861080
vn -0.494942 0.079381 -0.865293
vn -0.404748 0.578929 -0.707828
vn -0.494942 0.079381 -0.865293
vn 0.505025 0.059079 -0.861080
vn 0.433198 -0.407871 -0.803729
vn -0.432031 -0.424885 -0.795501
vn 0.462619 -0.120150 -0.878378
vn -0.463652 -0.129579 -0.876491
vn -0.432031 -0.424885 -0.795501
vn 0.433198 -0.407871 -0.803729
vn 0.383443 -0.600016 -0.702106
vn -0.382894 -0.604239 -0.698776
vn -0.463652 -0.129579 -0.876491
vn 0.462619 -0.120150 -0.878378
vn -0.810594 0.394578 -0.432718
vn -0.887165 0.020790 -0.460984
vn -0.518999 0.012163 -0.854688
vn -0.459924 0.432782 -0.775352
vn -0.859369 0.119175 -0.497275
vn -0.726201 0.555645 -0.404835
vn -0.404748 0.578929 -0.707828
vn -0.494942 0.079381 -0.865293
vn -0.859369 0.119175 -0.497275
vn -0.494942 0.079381 -0.865293
vn -0.432031 -0.424885 -0.795501
vn -0.779852 -0.368364 -0.506102
vn -0.463652 -0.129579 -0.876491
vn -0.813855 -0.146934 -0.562184
vn -0.779852 -0.368364 -0.506102
vn -0.432031 -0.424885 -0.795501
vn -0.382894 -0.604239 -0.698776
vn -0.679566 -0.577049 -0.452995
vn -0.813855 -0.146934 -0.562184
vn -0.463652 -0.129579 -0.876491
vn 0.542286 0.054385 -0.838432
vn 0.474916 0.458906 -0.750906
vn -0.459924 0.432782 -0.775352
vn -0.518999 0.012163 -0.854688
vn -0.459924 0.432782 -0.775352
vn -0.404748 0.578929 -0.707828
vn -0.726201 0.555645 -0.404835
vn -0.810594 0.394578 -0.432718
vn 0.770724 0.505924 -0.387331
vn 0.431484 0.557968 -0.708868
vn 0.474916 0.458906 -0.750906
vn 0.821032 0.429704 -0.375846
vn -0.459924 0.432782 -0.775352
vn 0.474916 0.458906 -0.750906
vn 0.431484 0.557968 -0.708868
vn -0.404748 0.578929 -0.707828
vn 0.383443 -0.600016 -0.702106
vn 0.684383 -0.569146 -0.455734
vn -0.000036 -0.999780 -0.020999
vn -0.000036 -0.999780 -0.020999
vn -0.382894 -0.604239 -0.698776
vn 0.383443 -0.600016 -0.702106
vn -0.000036 -0.999780 -0.020999
vn -0.679566 -0.577049 -0.452995
vn -0.382894 -0.604239 -0.698776
vn -0.741315 0.586616 -0.326088
vn -0.838894 -0.392100 -0.377512
vn -0.487921 -0.424846 -0.762521
vn -0.406155 0.670507 -0.620853
vn -0.800456 0.290163 -0.524477
vn -0.450769 0.830617 -0.326929
vn -0.232817 0.855843 -0.461876
vn -0.445948 0.353644 -0.822233
vn -0.797144 -0.457363 -0.394184
vn -0.870859 -0.069452 -0.486602
vn -0.507458 -0.049599 -0.860248
vn -0.450646 -0.511053 -0.731945
vn -0.507458 -0.049599 -0.860248
vn -0.870859 -0.069452 -0.486602
vn -0.800456 0.290163 -0.524477
vn -0.445948 0.353644 -0.822233
vn -0.450769 0.830617 -0.326929
vn -0.000695 0.995670 -0.092957
vn -0.232817 0.855843 -0.461876
vn -0.450646 -0.511053 -0.731945
vn -0.507458 -0.049599 -0.860248
vn 0.499268 -0.067516 -0.863813
vn 0.426373 -0.529201 -0.733589
vn 0.499268 -0.067516 -0.863813
vn -0.507458 -0.049599 -0.860248
vn -0.445948 0.353644 -0.822233
vn 0.446164 0.368693 -0.815477
vn -0.232817 0.855843 -0.461876
vn 0.231810 0.857991 -0.458384
vn 0.446164 0.368693 -0.815477
vn -0.445948 0.353644 -0.822233
vn -0.000695 0.995670 -0.092957
vn 0.231810 0.857991 -0.458384
vn -0.232817 0.855843 -0.461876
vn 0.824753 -0.361817 -0.434594
vn 0.708398 0.605217 -0.363158
vn 0.388950 0.672219 -0.629952
vn 0.470714 -0.401376 -0.785701
vn 0.864495 -0.101024 -0.492384
vn 0.758669 -0.500868 -0.416596
vn 0.426373 -0.529201 -0.733589
vn 0.499268 -0.067516 -0.863813
vn 0.864495 -0.101024 -0.492384
vn 0.499268 -0.067516 -0.863813
vn 0.446164 0.368693 -0.815477
vn 0.798795 0.316559 -0.511583
vn 0.231810 0.857991 -0.458384
vn 0.448155 0.834567 -0.320398
vn 0.798795 0.316559 -0.511583
vn 0.446164 0.368693 -0.815477
vn -0.000695 0.995670 -0.092957
vn 0.448155 0.834567 -0.320398
vn 0.231810 0.857991 -0.458384
vn -0.406155 0.670507 -0.620853
vn -0.487921 -0.424846 -0.762521
vn 0.470714 -0.401376 -0.785701
vn 0.388950 0.672219 -0.629952
vn 0.470714 -0.401376 -0.785701
vn 0.426373 -0.529201 -0.733589
vn 0.758669 -0.500868 -0.416596
vn 0.824753 -0.361817 -0.434594
vn -0.797144 -0.457363 -0.394184
vn -0.450646 -0.511053 -0.731945
vn -0.487921 -0.424846 -0.762521
vn -0.838894 -0.392100 -0.377512
vn 0.470714 -0.401376 -0.785701
vn -0.487921 -0.424846 -0.762521
vn -0.450646 -0.511053 -0.731945
vn 0.426373 -0.529201 -0.733589
vn -0.217952 0.970981 -0.098454
vn -0.741315 0.586616 -0.326088
vn -0.406155 0.670507 -0.620853
vn -0.109877 0.979879 -0.166624
vn -0.109877 0.979879 -0.166624
vn -0.406155 0.670507 -0.620853
vn 0.388950 0.672219 -0.629952
vn 0.112503 0.978175 -0.174690
vn 0.708398 0.605217 -0.363158
vn 0.223209 0.968019 -0.114527
vn 0.112503 0.978175 -0.174690
vn 0.388950 0.672219 -0.629952
vn -0.406154 0.670509 0.620851
vn -0.487920 -0.424846 0.762522
vn -0.838892 -0.392099 0.377515
vn -0.741313 0.586617 0.326090
vn -0.800454 0.290164 0.524479
vn -0.445946 0.353647 0.822232
vn -0.232816 0.855842 0.461878
vn -0.450768 0.830617 0.326931
vn -0.797142 -0.457364 0.394186
vn -0.450645 -0.511055 0.731944
vn -0.507458 -0.049599 0.860248
vn -0.870858 -0.069452 0.486603
vn -0.507458 -0.049599 0.860248
vn -0.445946 0.353647 0.822232
vn -0.800454 0.290164 0.524479
vn -0.870858 -0.069452 0.486603
vn -0.450768 0.830617 0.326931
vn -0.232816 0.855842 0.461878
vn -0.000695 0.995670 0.092958
vn -0.450645 -0.511055 0.731944
vn 0.426372 -0.529203 0.733588
vn 0.499268 -0.067516 0.863813
vn -0.507458 -0.049599 0.860248
vn 0.499268 -0.067516 0.863813
vn 0.446163 0.368695 0.815477
vn -0.445946 0.353647 0.822232
vn -0.507458 -0.049599 0.860248
vn -0.232816 0.855842 0.461878
vn -0.445946 0.353647 0.822232
vn 0.446163 0.368695 0.815477
vn 0.231809 0.857990 0.458385
vn -0.000695 0.995670 0.092958
vn -0.232816 0.855842 0.461878
vn 0.231809 0.857990 0.458385
vn 0.824751 -0.361817 0.434597
vn 0.470713 -0.401375 0.785702
vn 0.388949 0.672222 0.629950
vn 0.708396 0.605219 0.363161
vn 0.864495 -0.101024 0.492385
vn 0.499268 -0.067516 0.863813
vn 0.426372 -0.529203 0.733588
vn 0.758667 -0.500869 0.416598
vn 0.864495 -0.101024 0.492385
vn 0.798793 0.316560 0.511586
vn 0.446163 0.368695 0.815477
vn 0.499268 -0.067516 0.863813
vn 0.231809 0.857990 0.458385
vn 0.446163 0.368695 0.815477
vn 0.798793 0.316560 0.511586
vn 0.448154 0.834567 0.320400
vn -0.000695 0.995670 0.092958
vn 0.231809 0.857990 0.458385
vn 0.448154 0.834567 0.320400
vn 0.388949 0.672222 0.629950
vn 0.470713 -0.401375 0.785702
vn -0.487920 -0.424846 0.762522
vn -0.406154 0.670509 0.620851
vn 0.470713 -0.401375 0.785702
vn 0.824751 -0.361817 0.434597
vn 0.758667 -0.500869 0.416598
vn 0.426372 -0.529203 0.733588
vn -0.797142 -0.457364 0.394186
vn -0.838892 -0.392099 0.377515
vn -0.487920 -0.424846 0.762522
vn -0.450645 -0.511055 0.731944
vn 0.470713 -0.401375 0.785702
vn 0.426372 -0.529203 0.733588
vn -0.450645 -0.511055 0.731944
vn -0.487920 -0.424846 0.762522
vn 0.388949 0.672222 0.629950
vn 0.112501 0.978177 0.174683
vn 0.223206 0.968020 0.114526
vn 0.708396 0.605219 0.363161
vn -0.109876 0.979881 0.166618
vn 0.112501 0.978177 0.174683
vn 0.388949 0.672222 0.629950
vn -0.406154 0.670509 0.620851
vn -0.217950 0.970981 0.098454
vn -0.109876 0.979881 0.166618
vn -0.406154 0.670509 0.620851
vn -0.741313 0.586617 0.326090
s off
g Vase5
usemtl PropsPacked:blinn1SG
f 9/1/1 21/2/2 20/3/3 8/4/4
f 2/5/5 16/6/6 19/7/7 6/8/8
f 13/9/9 24/10/10 14/11/11 7/12/12
f 14/11/13 16/6/14 2/5/15 7/12/16
f 6/8/17 19/7/18 77/13/19 78/14/20
f 24/10/21 25/15/22 15/16/23 14/11/24
f 15/16/25 17/17/26 16/6/27 14/11/28
f 19/7/29 16/6/30 17/17/31 18/18/32
f 76/19/33 77/13/34 19/7/35 18/18/36
f 11/20/37 22/21/38 23/22/39 10/23/40
f 1/24/41 15/16/42 25/15/43 12/25/44
f 1/24/45 3/26/46 17/17/47 15/16/48
f 18/18/49 17/17/50 3/26/51 4/27/52
f 75/28/53 76/19/54 18/18/55 4/27/56
f 21/2/57 23/22/58 22/21/59 20/3/60
f 22/21/61 11/20/62 12/25/63 25/15/64
f 13/9/65 8/4/66 20/3/67 24/10/68
f 22/21/69 25/15/70 24/10/71 20/3/72
f 5/29/73 76/19/74 75/28/75
f 5/30/76 77/13/77 76/19/78
f 78/14/79 77/13/80 5/30/81
f 9/1/82 8/4/83 32/31/84 33/32/85
f 2/5/86 6/8/87 31/33/88 28/34/89
f 13/9/90 7/12/91 26/35/92 36/36/93
f 26/35/94 7/12/95 2/5/96 28/34/97
f 6/8/98 78/14/99 79/37/100 31/33/101
f 36/36/102 26/35/103 27/38/104 37/39/105
f 27/38/106 26/35/107 28/34/108 29/40/109
f 31/33/110 30/41/111 29/40/112 28/34/113
f 79/37/114 80/42/115 30/41/116 31/33/117
f 11/20/118 10/23/119 35/43/120 34/44/121
f 1/24/122 12/25/123 37/39/124 27/38/125
f 1/24/126 27/38/127 29/40/128 3/26/129
f 30/41/130 4/27/131 3/26/132 29/40/133
f 80/42/134 75/28/135 4/27/136 30/41/137
f 33/32/138 32/31/139 34/44/140 35/43/141
f 34/44/142 37/39/143 12/25/144 11/20/145
f 13/9/146 36/36/147 32/31/148 8/4/149
f 34/44/150 32/31/151 36/36/152 37/39/153
f 79/37/154 78/14/155 5/45/156
f 5/45/157 80/42/158 79/37/159
f 5/45/160 75/28/161 80/42/162
f 69/46/163 45/47/164 55/48/165 70/49/166
f 39/50/167 43/51/168 54/52/169 51/53/170
f 48/54/171 44/55/172 49/56/173 57/57/174
f 49/56/175 44/55/176 39/50/177 51/53/178
f 43/51/179 42/58/180 54/52/181
f 57/57/182 49/56/183 50/59/184 58/60/185
f 50/59/186 49/56/187 51/53/188 52/61/189
f 54/52/190 53/62/191 52/61/192 51/53/193
f 42/58/194 53/62/195 54/52/196
f 46/63/197 72/64/198 71/65/199 56/66/200
f 38/67/201 47/68/202 58/60/203 50/59/204
f 38/67/205 50/59/206 52/61/207 40/69/208
f 53/62/209 41/70/210 40/69/211 52/61/212
f 42/58/213 41/70/214 53/62/215
f 70/49/216 55/48/217 56/66/218 71/65/219
f 56/66/220 58/60/221 47/68/222 46/63/223
f 48/54/224 57/57/225 55/48/226 45/47/227
f 56/66/228 55/48/229 57/57/230 58/60/231
f 9/1/232 69/46/233 70/49/234 21/2/235
f 21/2/236 70/49/237 71/65/238 23/22/239
f 72/64/240 10/23/241 23/22/242 71/65/243
f 74/71/244 65/72/245 45/47/246 69/46/247
f 39/50/248 61/73/249 64/74/250 43/51/251
f 48/54/252 67/75/253 59/76/254 44/55/255
f 59/76/256 61/73/257 39/50/258 44/55/259
f 43/51/260 64/74/261 42/58/262
f 67/75/263 68/77/264 60/78/265 59/76/266
f 60/78/267 62/79/268 61/73/269 59/76/270
f 64/74/271 61/73/272 62/79/273 63/80/274
f 42/58/275 64/74/276 63/80/277
f 46/63/278 66/81/279 73/82/280 72/64/281
f 38/67/282 60/78/283 68/77/284 47/68/285
f 38/67/286 40/69/287 62/79/288 60/78/289
f 63/80/290 62/79/291 40/69/292 41/70/293
f 42/58/294 63/80/295 41/70/296
f 73/82/297 66/81/298 65/72/299 74/71/300
f 66/81/301 46/63/302 47/68/303 68/77/304
f 48/54/305 45/47/306 65/72/307 67/75/308
f 66/81/309 68/77/310 67/75/311 65/72/312
f 73/82/313 35/43/314 10/23/315 72/64/316
f 33/32/317 35/43/318 73/82/319 74/71/320
f 9/1/321 33/32/322 74/71/323 69/46/324
