# This file uses centimeters as units for non-parametric coordinates.

mtllib Vase4.mtl
g default
v 0.070436 0.036093 -0.000135
v 0.020365 0.031450 -0.002877
v -0.038539 0.031450 -0.002877
v -0.083327 0.036093 -0.000135
v 0.033908 0.035101 0.065933
v -0.045417 0.035101 0.065933
v -0.050579 0.035101 -0.068191
v 0.033908 0.035101 -0.066204
v 0.061423 0.302552 0.126385
v -0.061951 0.302552 0.126385
v 0.045827 0.378987 0.084540
v -0.048610 0.378987 0.084540
v 0.135077 0.304476 -0.000138
v -0.135078 0.304475 -0.000138
v 0.087964 0.380449 -0.000175
v -0.089170 0.380449 -0.000175
v 0.061423 0.302552 -0.126660
v -0.066032 0.302552 -0.123300
v 0.045827 0.378987 -0.084889
v -0.051181 0.378987 -0.083540
v 0.037817 0.375028 0.070075
v 0.075434 0.376267 -0.000445
v 0.037817 0.375028 -0.070966
v -0.040593 0.375028 -0.068761
v -0.076351 0.376267 -0.000445
v -0.039780 0.375028 0.070075
v 0.075887 0.001266 0.000000
v 0.021940 -0.003736 -0.002954
v -0.041521 -0.003736 -0.002954
v -0.089776 0.001266 0.000000
v 0.036533 0.000198 0.071183
v -0.048932 0.000198 0.071183
v -0.054493 0.000197 -0.073321
v 0.036533 0.000198 -0.071183
v 0.072980 0.288350 0.138095
v -0.073605 0.288350 0.138095
v 0.160493 0.290422 0.000000
v -0.160493 0.290422 0.000000
v 0.072980 0.288350 -0.138095
v -0.079623 0.288350 -0.134761
vt 0.036151 0.452556
vt 0.028444 0.440486
vt 0.028449 0.442957
vt 0.018198 0.440987
vt 0.018203 0.443522
vt 0.012346 0.451413
vt 0.028449 0.442957
vt 0.018203 0.443522
vt 0.921569 0.476036
vt 0.936437 0.499306
vt 0.923981 0.414135
vt 0.916413 0.401055
vt 0.895925 0.477151
vt 0.898963 0.400863
vt 0.899541 0.503320
vt 0.917630 0.504033
vt 0.924738 0.512865
vt 0.880913 0.496078
vt 0.891121 0.414360
vt 0.891001 0.510640
vt 0.916755 0.510238
vt 0.922144 0.515870
vt 0.893236 0.513868
vt 0.900342 0.509120
vt 0.921569 0.476036
vt 0.916413 0.401055
vt 0.895925 0.477151
vt 0.898963 0.400863
vt 0.917630 0.504033
vt 0.899541 0.503320
vt 0.916755 0.510238
vt 0.900342 0.509120
vt 0.036151 0.452556
vt 0.028449 0.442957
vt 0.028444 0.440486
vt 0.018203 0.443522
vt 0.018198 0.440987
vt 0.012346 0.451413
vt 0.028449 0.442957
vt 0.018203 0.443522
vt 0.921569 0.476036
vt 0.916413 0.401055
vt 0.923981 0.414135
vt 0.936437 0.499306
vt 0.895925 0.477151
vt 0.898963 0.400863
vt 0.880913 0.496078
vt 0.891121 0.414360
vt 0.921569 0.476036
vt 0.916413 0.401055
vt 0.895925 0.477151
vt 0.898963 0.400863
vn -0.090373 0.995292 -0.035021
vn -0.045235 0.998005 -0.044049
vn -0.045235 0.998005 -0.044049
vn -0.045235 0.998005 -0.044049
vn -0.045235 0.998005 -0.044049
vn 0.050280 0.997586 -0.047904
vn 0.050280 0.997586 -0.047904
vn 0.100431 0.994027 -0.042702
vn 0.050280 0.997586 -0.047904
vn 0.050280 0.997586 -0.047904
vn -0.047590 0.997761 0.046981
vn -0.047590 0.997761 0.046981
vn -0.094286 0.994850 0.037192
vn 0.052301 0.997549 0.046475
vn 0.052301 0.997549 0.046475
vn -0.047590 0.997761 0.046981
vn -0.047590 0.997761 0.046981
vn 0.105234 0.993790 0.036153
vn 0.052301 0.997549 0.046475
vn 0.052301 0.997549 0.046475
vn -0.491655 -0.240185 -0.837010
vn -0.850003 -0.201395 -0.486760
vn -0.851572 0.201076 -0.484142
vn -0.488964 0.242045 -0.838051
vn 0.492657 -0.247868 -0.834176
vn -0.491655 -0.240185 -0.837010
vn -0.488964 0.242045 -0.838051
vn 0.491542 0.221105 -0.842318
vn 0.494469 0.368576 -0.787180
vn -0.493532 0.362188 -0.790725
vn -0.491655 -0.240185 -0.837010
vn 0.492657 -0.247868 -0.834176
vn -0.493532 0.362188 -0.790725
vn -0.833415 0.317492 -0.452347
vn -0.850003 -0.201395 -0.486760
vn -0.491655 -0.240185 -0.837010
vn 0.847889 -0.214825 -0.484701
vn 0.492657 -0.247868 -0.834176
vn 0.491542 0.221105 -0.842318
vn 0.855616 0.164406 -0.490808
vn 0.834037 0.327325 -0.444118
vn 0.494469 0.368576 -0.787180
vn 0.492657 -0.247868 -0.834176
vn 0.847889 -0.214825 -0.484701
vn -0.143698 0.969384 -0.199110
vn -0.283821 0.950122 -0.129285
vn -0.833415 0.317492 -0.452347
vn -0.493532 0.362188 -0.790725
vn 0.276362 0.953441 -0.120725
vn 0.139888 0.970831 -0.194729
vn 0.494469 0.368576 -0.787180
vn 0.834037 0.327325 -0.444118
vn 0.139888 0.970831 -0.194729
vn -0.143698 0.969384 -0.199110
vn -0.493532 0.362188 -0.790725
vn 0.494469 0.368576 -0.787180
vn -0.484219 -0.240269 0.841310
vn -0.486333 0.237128 0.840982
vn -0.851569 0.201085 0.484143
vn -0.850265 -0.199980 0.486886
vn 0.505955 -0.252321 0.824829
vn 0.509167 0.213165 0.833853
vn -0.486333 0.237128 0.840982
vn -0.484219 -0.240269 0.841310
vn -0.482857 0.366123 0.795489
vn 0.500727 0.371187 0.781980
vn 0.505955 -0.252321 0.824829
vn -0.484219 -0.240269 0.841310
vn -0.833807 0.316285 0.452471
vn -0.482857 0.366123 0.795489
vn -0.484219 -0.240269 0.841310
vn -0.850265 -0.199980 0.486886
vn 0.856639 -0.222224 0.465603
vn 0.872757 0.157001 0.462219
vn 0.509167 0.213165 0.833853
vn 0.505955 -0.252321 0.824829
vn 0.500727 0.371187 0.781980
vn 0.836113 0.331113 0.437355
vn 0.856639 -0.222224 0.465603
vn 0.505955 -0.252321 0.824829
vn -0.143388 0.968996 0.201213
vn -0.482857 0.366123 0.795489
vn -0.833807 0.316285 0.452471
vn -0.288387 0.948419 0.131660
vn 0.136329 0.972155 0.190602
vn 0.500727 0.371187 0.781980
vn -0.482857 0.366123 0.795489
vn -0.143388 0.968996 0.201213
vn 0.264167 0.958024 0.111378
vn 0.836113 0.331113 0.437355
vn 0.500727 0.371187 0.781980
vn 0.136329 0.972155 0.190602
vn 0.090366 -0.995293 0.035026
vn 0.045231 -0.998005 0.044055
vn 0.045231 -0.998005 0.044055
vn 0.045231 -0.998005 0.044055
vn -0.050276 -0.997586 0.047910
vn -0.050276 -0.997586 0.047910
vn 0.045231 -0.998005 0.044055
vn -0.100424 -0.994028 0.042708
vn -0.050276 -0.997586 0.047910
vn -0.050276 -0.997586 0.047910
vn 0.047590 -0.997761 -0.046983
vn 0.094281 -0.994851 -0.037197
vn 0.047590 -0.997761 -0.046983
vn -0.052295 -0.997550 -0.046473
vn 0.047590 -0.997761 -0.046983
vn 0.047590 -0.997761 -0.046983
vn -0.052295 -0.997550 -0.046473
vn -0.105228 -0.993791 -0.036148
vn -0.052295 -0.997550 -0.046473
vn -0.052295 -0.997550 -0.046473
vn 0.483319 0.179599 0.856824
vn 0.474555 -0.261452 0.840500
vn 0.833181 -0.232842 0.501591
vn 0.846971 0.161545 0.506501
vn -0.485212 0.186664 0.854240
vn -0.477539 -0.241374 0.844805
vn 0.474555 -0.261452 0.840500
vn 0.483319 0.179599 0.856824
vn -0.407715 0.569375 0.713849
vn -0.485212 0.186664 0.854240
vn 0.483319 0.179599 0.856824
vn 0.402143 0.573537 0.713678
vn 0.402143 0.573537 0.713678
vn 0.483319 0.179599 0.856824
vn 0.846971 0.161545 0.506501
vn 0.728840 0.530770 0.432521
vn -0.846026 0.173757 0.504032
vn -0.838088 -0.197423 0.508560
vn -0.477539 -0.241374 0.844805
vn -0.485212 0.186664 0.854240
vn -0.737333 0.520983 0.430019
vn -0.846026 0.173757 0.504032
vn -0.485212 0.186664 0.854240
vn -0.407715 0.569375 0.713849
vn 0.477520 0.179227 -0.860147
vn 0.847076 0.160846 -0.506548
vn 0.833182 -0.232842 -0.501591
vn 0.472602 -0.256807 -0.843029
vn -0.501164 0.190265 -0.844176
vn 0.477520 0.179227 -0.860147
vn 0.472602 -0.256807 -0.843029
vn -0.496351 -0.236103 -0.835399
vn -0.419951 0.567754 -0.708023
vn 0.395329 0.570209 -0.720122
vn 0.477520 0.179227 -0.860147
vn -0.501164 0.190265 -0.844176
vn 0.395329 0.570209 -0.720122
vn 0.729498 0.529569 -0.432885
vn 0.847076 0.160846 -0.506548
vn 0.477520 0.179227 -0.860147
vn -0.859989 0.179333 -0.477764
vn -0.501164 0.190265 -0.844176
vn -0.496351 -0.236103 -0.835399
vn -0.857976 -0.193104 -0.476013
vn -0.742708 0.526893 -0.413242
vn -0.419951 0.567754 -0.708023
vn -0.501164 0.190265 -0.844176
vn -0.859989 0.179333 -0.477764
s off
g Vase4
usemtl PropsPacked:blinn1SG
f 1/1/1 2/2/2 5/3/3
f 5/3/4 2/2/5 3/4/6 6/5/7
f 4/6/8 6/5/9 3/4/10
f 8/7/11 2/2/12 1/1/13
f 7/8/14 3/4/15 2/2/16 8/7/17
f 4/6/18 3/4/19 7/8/20
f 9/9/21 13/10/22 1/11/23 5/12/24
f 10/13/25 9/9/26 5/12/27 6/14/28
f 26/15/29 21/16/30 9/9/31 10/13/32
f 21/16/33 22/17/34 13/10/35 9/9/36
f 14/18/37 10/13/38 6/14/39 4/19/40
f 25/20/41 26/15/42 10/13/43 14/18/44
f 11/21/45 15/22/46 22/17/47 21/16/48
f 16/23/49 12/24/50 26/15/51 25/20/52
f 12/24/53 11/21/54 21/16/55 26/15/56
f 17/25/57 8/26/58 1/11/59 13/10/60
f 18/27/61 7/28/62 8/26/63 17/25/64
f 23/29/65 24/30/66 18/27/67 17/25/68
f 22/17/69 23/29/70 17/25/71 13/10/72
f 14/18/73 4/19/74 7/28/75 18/27/76
f 24/30/77 25/20/78 14/18/79 18/27/80
f 19/31/81 23/29/82 22/17/83 15/22/84
f 20/32/85 24/30/86 23/29/87 19/31/88
f 16/23/89 25/20/90 24/30/91 20/32/92
f 27/33/93 31/34/94 28/35/95
f 31/34/96 32/36/97 29/37/98 28/35/99
f 30/38/100 29/37/101 32/36/102
f 34/39/103 27/33/104 28/35/105
f 33/40/106 34/39/107 28/35/108 29/37/109
f 30/38/110 33/40/111 29/37/112
f 35/41/113 31/42/114 27/43/115 37/44/116
f 36/45/117 32/46/118 31/42/119 35/41/120
f 12/24/121 36/45/122 35/41/123 11/21/124
f 11/21/125 35/41/126 37/44/127 15/22/128
f 38/47/129 30/48/130 32/46/131 36/45/132
f 16/23/133 38/47/134 36/45/135 12/24/136
f 39/49/137 37/44/138 27/43/139 34/50/140
f 40/51/141 39/49/142 34/50/143 33/52/144
f 20/32/145 19/31/146 39/49/147 40/51/148
f 19/31/149 15/22/150 37/44/151 39/49/152
f 38/47/153 40/51/154 33/52/155 30/48/156
f 16/23/157 20/32/158 40/51/159 38/47/160
