# This file uses centimeters as units for non-parametric coordinates.

mtllib WoodenLog1.mtl
g default
v 0.396441 0.016547 0.144021
v 0.222026 0.026870 0.083265
v 0.129044 0.039185 0.022098
v -0.054864 0.041793 0.038762
v -0.112429 0.036306 0.073589
v -0.300486 0.031241 0.125266
v -0.302948 0.035297 0.106047
v -0.274012 0.036747 0.094856
v -0.285775 0.040153 0.080109
v -0.270385 0.042259 0.067714
v -0.248034 0.039760 0.076545
v -0.161526 0.045237 0.037578
v -0.112783 0.131060 -0.014713
v 0.020803 0.092897 -0.135351
v -0.381142 0.052597 0.033835
v 0.253229 0.070544 -0.098158
v 0.331003 0.073017 -0.100955
v -0.448147 0.060264 0.006522
v -0.458010 0.066650 -0.022881
v -0.501399 0.071771 -0.041325
v -0.472445 0.072905 -0.050987
v -0.426310 0.068499 -0.036396
v -0.414087 0.073152 -0.060630
v -0.278012 0.069266 -0.061573
v -0.145764 0.068755 -0.078248
v -0.080347 0.071493 -0.100943
v -0.089926 0.081894 -0.149773
v -0.125713 0.086861 -0.168571
v 0.006702 0.089773 -0.123539
v -0.111903 0.088455 -0.178266
v -0.123204 0.091847 -0.193006
v -0.111867 0.092764 -0.199074
v -0.064120 0.087144 -0.178855
v -0.034321 0.081208 -0.154510
v 0.425564 0.066250 -0.063070
v 0.509979 -0.001359 0.121375
v 0.438270 0.054494 -0.012163
v 0.460704 0.049449 0.011353
v 0.437733 0.046027 0.023549
v 0.500669 0.038316 0.062313
v 0.484009 0.033069 0.082840
v 0.397987 0.029874 0.087877
v 0.405772 0.027023 0.100685
v 0.458438 0.018126 0.101313
v 0.488392 0.009841 0.090279
v 0.508529 0.001405 0.104261
v -0.274590 0.049026 0.035651
v -0.451452 0.070900 -0.044347
v -0.086173 0.077819 -0.130645
v -0.228552 0.033178 0.105499
v -0.263680 0.032233 0.115151
v -0.068966 0.129685 -0.014418
v -0.050826 0.115229 0.010780
v 0.286573 0.023049 0.105750
v 0.308735 0.104282 -0.027754
v 0.237118 0.106018 -0.042129
v 0.089301 0.113341 -0.087599
v -0.006336 0.112755 -0.075195
v -0.068941 0.114361 -0.073884
v -0.132871 0.110599 -0.046463
v -0.276746 0.112605 -0.035320
v -0.406071 0.116985 -0.037743
v -0.421050 0.070501 -0.046826
v 0.304839 0.118297 0.030129
v 0.234401 0.119364 0.018696
v 0.094573 0.114647 -0.012071
v 0.332688 0.020320 0.121812
v 0.396987 0.120660 0.029207
v 0.339532 0.119187 0.029782
v 0.359639 0.104081 -0.021899
v 0.387155 0.068998 -0.078456
v 0.470424 0.010340 0.130275
v -0.138008 0.097843 0.015868
v -0.276230 0.099551 0.027634
v -0.393069 0.103542 0.025282
v -0.435684 0.111202 -0.005531
v 0.112571 0.090773 0.010020
v 0.227513 0.082545 0.056082
v 0.294809 0.080010 0.073407
v 0.335591 0.078970 0.081809
v 0.397231 0.084752 0.063447
v -0.048878 0.091383 0.034157
v -0.274695 0.120270 -0.006007
v -0.398625 0.124613 -0.009034
v 0.474566 0.034333 0.129211
v 0.404387 0.042259 0.139392
v 0.348304 0.048706 0.119541
v -0.301775 0.033364 0.115209
v -0.268424 0.056653 0.109100
v -0.237826 0.067306 0.096703
v -0.136719 0.087746 0.064432
v -0.096920 0.119518 0.036806
v -0.081954 0.124390 0.011119
v -0.060200 0.126764 -0.001584
v -0.429348 0.115237 -0.017541
v -0.453203 0.102249 -0.028497
v -0.277853 0.041237 0.073730
v -0.260117 0.055747 0.089046
v -0.252745 0.059763 0.102229
v -0.245599 0.032720 0.110184
v 0.121770 0.073043 -0.121639
v -0.118608 0.087681 -0.173561
v -0.075578 0.120312 -0.157340
v -0.058423 0.115279 -0.135527
v -0.036322 0.109511 -0.110878
v -0.026249 0.119310 -0.103528
v -0.097013 0.108898 -0.174127
v -0.117178 -0.015433 -0.045055
v -0.073360 -0.016808 -0.044760
v -0.054721 -0.014608 -0.016113
v 0.310899 0.011317 -0.049762
v 0.239282 0.013053 -0.064137
v 0.091465 0.020376 -0.109607
v -0.009140 0.019222 -0.094567
v -0.071745 0.020828 -0.093256
v -0.135674 0.017065 -0.065836
v -0.279551 0.019072 -0.054693
v -0.408876 0.023452 -0.057116
v 0.308228 -0.027307 -0.004340
v 0.237790 -0.026240 -0.015772
v 0.097577 -0.014403 -0.042621
v 0.400376 -0.024944 -0.005261
v 0.342922 -0.026417 -0.004686
v 0.361804 0.011116 -0.043907
v -0.140812 0.004310 -0.003505
v -0.279033 0.006018 0.008263
v -0.395875 0.010009 0.005910
v -0.438489 0.017669 -0.024905
v 0.114735 -0.002192 -0.011988
v 0.229677 -0.010420 0.034074
v 0.296974 -0.012955 0.051399
v 0.337756 -0.013995 0.059801
v 0.399395 -0.008213 0.041440
v -0.051684 -0.002151 0.014783
v -0.278291 0.000301 -0.030853
v -0.402224 0.004645 -0.033881
v 0.456311 -0.007656 0.110826
v 0.401821 -0.001142 0.116065
v 0.349514 -0.003320 0.107225
v -0.269747 0.012536 0.099963
v -0.239666 0.005938 0.083992
v -0.139525 -0.005787 0.045057
v -0.101291 -0.026217 0.006621
v -0.086324 -0.021346 -0.019066
v -0.064594 -0.019729 -0.031925
v -0.432253 0.018375 -0.037604
v -0.455190 0.035992 -0.042221
v -0.261165 0.020848 0.081818
v -0.254195 0.011514 0.092235
v -0.077720 0.048878 -0.172133
v -0.060565 0.043847 -0.150322
v -0.038463 0.038078 -0.125673
v -0.029059 0.025606 -0.122936
v -0.098262 0.067229 -0.182757
v 0.368545 0.014941 -0.041108
vt 0.756442 0.408745
vt 0.751991 0.414010
vt 0.745533 0.413613
vt 0.735359 0.456592
vt 0.726716 0.440637
vt 0.739243 0.441068
vt 0.744305 0.456363
vt 0.793816 0.473119
vt 0.798107 0.467238
vt 0.808906 0.459399
vt 0.809337 0.465057
vt 0.771977 0.474038
vt 0.774351 0.467449
vt 0.813730 0.457030
vt 0.813457 0.454475
vt 0.823360 0.451574
vt 0.746600 0.466292
vt 0.748720 0.475231
vt 0.760378 0.490130
vt 0.742613 0.480219
vt 0.763484 0.485863
vt 0.750334 0.448432
vt 0.728424 0.426322
vt 0.737572 0.420613
vt 0.741717 0.423905
vt 0.735099 0.431601
vt 0.746857 0.417661
vt 0.765084 0.488969
vt 0.762883 0.492051
vt 0.770932 0.497000
vt 0.765489 0.493946
vt 0.771105 0.495303
vt 0.767663 0.485487
vt 0.737229 0.470735
vt 0.606990 0.493725
vt 0.615343 0.491716
vt 0.614478 0.496113
vt 0.691344 0.468428
vt 0.696374 0.461824
vt 0.727032 0.471763
vt 0.726913 0.475728
vt 0.669485 0.474000
vt 0.671644 0.461351
vt 0.702083 0.454544
vt 0.654550 0.478345
vt 0.656578 0.463966
vt 0.660131 0.449653
vt 0.649582 0.450529
vt 0.648058 0.437023
vt 0.661174 0.431106
vt 0.675729 0.446071
vt 0.676540 0.432619
vt 0.709094 0.434409
vt 0.704826 0.427124
vt 0.726459 0.422923
vt 0.732312 0.433943
vt 0.742745 0.435753
vt 0.754276 0.442333
vt 0.778642 0.451768
vt 0.779960 0.446779
vt 0.805016 0.451305
vt 0.807495 0.447018
vt 0.807695 0.450501
vt 0.649673 0.463608
vt 0.729643 0.464060
vt 0.645674 0.480376
vt 0.638341 0.462905
vt 0.634863 0.474486
vt 0.613659 0.476376
vt 0.629388 0.465895
vt 0.632359 0.455455
vt 0.626102 0.461898
vt 0.639232 0.441251
vt 0.627938 0.499426
vt 0.628520 0.494176
vt 0.639631 0.492309
vt 0.642217 0.494683
vt 0.732747 0.460126
vt 0.736127 0.463737
vt 0.776440 0.458774
vt 0.801761 0.458043
vt 0.808200 0.456757
vt 0.667600 0.484692
vt 0.652818 0.490672
vt 0.631827 0.484774
vt 0.615462 0.481876
vt 0.808293 0.453537
vt 0.607640 0.490075
vt 0.612728 0.487606
vt 0.619024 0.488278
vt 0.629284 0.488221
vt 0.763991 0.496228
vt 0.770260 0.498505
vt 0.757308 0.494115
vt 0.760581 0.495210
vt 0.736207 0.485223
vt 0.814007 0.451767
vt 0.818654 0.449990
vt 0.769295 0.487570
vt 0.768772 0.486304
vt 0.767455 0.491069
vt 0.748491 0.421459
vt 0.755882 0.414804
vt 0.756761 0.416254
vt 0.746156 0.427103
vt 0.758215 0.409408
vt 0.755050 0.413436
vt 0.751991 0.414010
vt 0.735359 0.456592
vt 0.744305 0.456363
vt 0.739243 0.441068
vt 0.726716 0.440637
vt 0.808906 0.459399
vt 0.798107 0.467238
vt 0.774351 0.467449
vt 0.813457 0.454475
vt 0.746600 0.466292
vt 0.760378 0.490130
vt 0.742613 0.480219
vt 0.750334 0.448432
vt 0.735099 0.431601
vt 0.741717 0.423905
vt 0.746857 0.417661
vt 0.765084 0.488969
vt 0.762883 0.492051
vt 0.765489 0.493946
vt 0.737229 0.470735
vt 0.608975 0.491476
vt 0.618338 0.493146
vt 0.609635 0.491517
vt 0.727032 0.471763
vt 0.696374 0.461824
vt 0.702083 0.454544
vt 0.671644 0.461351
vt 0.669485 0.474000
vt 0.656578 0.463966
vt 0.654550 0.478345
vt 0.660131 0.449653
vt 0.649582 0.450529
vt 0.675729 0.446071
vt 0.709094 0.434409
vt 0.732312 0.433943
vt 0.778642 0.451768
vt 0.805016 0.451305
vt 0.649673 0.463608
vt 0.729643 0.464060
vt 0.645674 0.480376
vt 0.638341 0.462905
vt 0.634863 0.474486
vt 0.648064 0.450962
vt 0.639631 0.492309
vt 0.628520 0.494176
vt 0.615289 0.494471
vt 0.732747 0.460126
vt 0.736127 0.463737
vt 0.776440 0.458774
vt 0.801761 0.458043
vt 0.808200 0.456757
vt 0.618393 0.490259
vt 0.612363 0.490535
vn 0.037830 0.828689 -0.558430
vn -0.291172 0.908746 -0.298999
vn 0.425373 0.638923 -0.640965
vn 0.114260 0.993446 -0.003109
vn 0.170065 0.983040 -0.068625
vn -0.232426 0.890422 -0.391315
vn -0.110512 0.993681 0.019617
vn -0.232773 0.174103 0.956820
vn -0.196179 0.571628 0.796715
vn -0.658441 0.545935 0.518083
vn -0.705128 0.256590 0.661027
vn 0.015296 0.214227 0.976664
vn 0.018641 0.547265 0.836752
vn -0.196179 0.571628 0.796715
vn -0.232773 0.174103 0.956820
vn -0.727530 0.243621 0.641365
vn -0.535297 0.842351 -0.062469
vn -0.436638 0.888513 0.141042
vn -0.705128 0.256590 0.661027
vn -0.658441 0.545935 0.518083
vn -0.727530 0.243621 0.641365
vn -0.308118 0.737103 0.601450
vn 0.018641 0.547265 0.836752
vn 0.015296 0.214227 0.976664
vn -0.545925 0.807597 0.223052
vn -0.033291 0.965010 0.260093
vn -0.183148 0.818519 0.544504
vn -0.545925 0.807597 0.223052
vn -0.071806 0.738216 -0.670732
vn -0.232426 0.890422 -0.391315
vn -0.175278 0.768298 -0.615626
vn -0.110512 0.993681 0.019617
vn 0.237804 0.783229 -0.574457
vn 0.512043 0.705563 -0.489891
vn -0.123289 0.992277 -0.013627
vn -0.239695 0.853994 -0.461781
vn -0.330882 0.943330 0.025431
vn -0.123289 0.992277 -0.013627
vn 0.512043 0.705563 -0.489891
vn 0.425373 0.638923 -0.640965
vn -0.291172 0.908746 -0.298999
vn -0.330882 0.943330 0.025431
vn 0.425373 0.638923 -0.640965
vn -0.363728 0.873905 -0.322478
vn -0.142980 0.907545 0.394865
vn -0.033291 0.965010 0.260093
vn -0.071806 0.738216 -0.670732
vn -0.525974 0.816044 0.239633
vn -0.367225 0.874091 0.317979
vn -0.751565 0.155338 -0.641109
vn -0.039788 0.853076 -0.520267
vn -0.363728 0.873905 -0.322478
vn -0.071806 0.738216 -0.670732
vn -0.183148 0.818519 0.544504
vn -0.031352 0.697613 0.715788
vn -0.308118 0.737103 0.601450
vn -0.545925 0.807597 0.223052
vn 0.600827 0.451264 0.659824
vn 0.464451 0.863888 0.194890
vn 0.195684 0.038157 0.979924
vn -0.157316 0.232849 0.959705
vn -0.106559 0.485323 0.867817
vn 0.223049 0.535969 0.814240
vn 0.221128 0.186281 0.957289
vn -0.106559 0.485323 0.867817
vn -0.251253 0.553117 0.794313
vn -0.064838 0.952588 0.297273
vn -0.017719 0.934410 0.355757
vn -0.251253 0.553117 0.794313
vn -0.158773 0.640585 0.751293
vn -0.032858 0.972712 0.229679
vn -0.064838 0.952588 0.297273
vn 0.060864 0.939968 -0.335790
vn 0.255804 0.913678 -0.315843
vn 0.188759 0.888794 -0.417630
vn 0.087064 0.898739 -0.429753
vn 0.076271 0.934640 -0.347319
vn 0.060864 0.939968 -0.335790
vn 0.087064 0.898739 -0.429753
vn 0.101324 0.849376 -0.517970
vn 0.080818 0.932322 -0.352484
vn 0.201218 0.764757 -0.612093
vn 0.152033 0.877392 -0.455049
vn 0.170065 0.983040 -0.068625
vn 0.080818 0.932322 -0.352484
vn 0.152033 0.877392 -0.455049
vn -0.069590 0.891633 -0.447379
vn 0.170065 0.983040 -0.068625
vn 0.152033 0.877392 -0.455049
vn 0.237804 0.783229 -0.574457
vn -0.232426 0.890422 -0.391315
vn -0.584102 0.738063 -0.337770
vn -0.197640 0.590201 -0.782689
vn -0.175278 0.768298 -0.615626
vn -0.018761 0.780489 -0.624888
vn -0.175278 0.768298 -0.615626
vn -0.197640 0.590201 -0.782689
vn -0.028619 0.530980 -0.846901
vn -0.544899 0.691070 -0.474875
vn -0.018761 0.780489 -0.624888
vn -0.028619 0.530980 -0.846901
vn -0.526733 0.187513 -0.829090
vn -0.961435 0.083125 -0.262170
vn -0.544899 0.691070 -0.474875
vn -0.526733 0.187513 -0.829090
vn -0.032858 0.972712 0.229679
vn 0.095885 0.982294 0.160952
vn 0.255804 0.913678 -0.315843
vn 0.060864 0.939968 -0.335790
vn -0.064838 0.952588 0.297273
vn -0.032858 0.972712 0.229679
vn 0.060864 0.939968 -0.335790
vn 0.076271 0.934640 -0.347319
vn -0.017719 0.934410 0.355757
vn -0.064838 0.952588 0.297273
vn 0.076271 0.934640 -0.347319
vn 0.080818 0.932322 -0.352484
vn 0.245138 0.867400 0.433041
vn -0.017719 0.934410 0.355757
vn 0.080818 0.932322 -0.352484
vn 0.170065 0.983040 -0.068625
vn -0.158773 0.640585 0.751293
vn -0.112675 0.665240 0.738078
vn 0.095885 0.982294 0.160952
vn -0.032858 0.972712 0.229679
vn 0.543772 0.828441 0.134155
vn 0.344541 0.737948 0.580280
vn 0.464934 0.779608 0.419580
vn 0.661256 0.575383 0.481326
vn 0.507593 0.806130 -0.304146
vn 0.543772 0.828441 0.134155
vn 0.745722 0.589304 0.310837
vn -0.112675 0.665240 0.738078
vn 0.344541 0.737948 0.580280
vn 0.543772 0.828441 0.134155
vn 0.095885 0.982294 0.160952
vn 0.255804 0.913678 -0.315843
vn 0.095885 0.982294 0.160952
vn 0.543772 0.828441 0.134155
vn 0.507593 0.806130 -0.304146
vn 0.188759 0.888794 -0.417630
vn 0.255804 0.913678 -0.315843
vn 0.396876 0.898055 -0.189704
vn -0.068072 0.165437 0.983868
vn 0.090238 0.867921 0.488437
vn -0.115454 0.740818 0.661709
vn -0.418287 0.420438 0.805151
vn 0.195684 0.038157 0.979924
vn 0.464451 0.863888 0.194890
vn 0.090238 0.867921 0.488437
vn -0.068072 0.165437 0.983868
vn 0.292635 0.905206 0.308167
vn 0.170065 0.983040 -0.068625
vn 0.114260 0.993446 -0.003109
vn -0.308118 0.737103 0.601450
vn -0.031352 0.697613 0.715788
vn 0.090649 0.898133 0.430280
vn -0.110512 0.993681 0.019617
vn -0.110512 0.993681 0.019617
vn 0.007215 0.989540 0.144078
vn 0.018641 0.547265 0.836752
vn -0.308118 0.737103 0.601450
vn -0.196179 0.571628 0.796715
vn 0.018641 0.547265 0.836752
vn 0.007215 0.989540 0.144078
vn -0.277540 0.959073 -0.056132
vn -0.658441 0.545935 0.518083
vn -0.196179 0.571628 0.796715
vn -0.277540 0.959073 -0.056132
vn -0.128173 0.879724 -0.457883
vn -0.535297 0.842351 -0.062469
vn -0.658441 0.545935 0.518083
vn -0.128173 0.879724 -0.457883
vn -0.329309 0.378765 0.864923
vn -0.251253 0.553117 0.794313
vn -0.106559 0.485323 0.867817
vn -0.157316 0.232849 0.959705
vn -0.220518 0.505111 0.834407
vn -0.158773 0.640585 0.751293
vn -0.251253 0.553117 0.794313
vn -0.329309 0.378765 0.864923
vn -0.418287 0.420438 0.805151
vn -0.112675 0.665240 0.738078
vn -0.158773 0.640585 0.751293
vn -0.220518 0.505111 0.834407
vn -0.418287 0.420438 0.805151
vn -0.115454 0.740818 0.661709
vn -0.112675 0.665240 0.738078
vn 0.464934 0.779608 0.419580
vn 0.344541 0.737948 0.580280
vn 0.316142 0.809771 0.494293
vn 0.155332 0.564902 0.810406
vn 0.543772 0.828441 0.134155
vn 0.661256 0.575383 0.481326
vn 0.745722 0.589304 0.310837
vn 0.223049 0.535969 0.814240
vn -0.106559 0.485323 0.867817
vn -0.017719 0.934410 0.355757
vn 0.245138 0.867400 0.433041
vn -0.110512 0.993681 0.019617
vn 0.090649 0.898133 0.430280
vn 0.292635 0.905206 0.308167
vn 0.114260 0.993446 -0.003109
vn 0.007215 0.989540 0.144078
vn -0.110512 0.993681 0.019617
vn -0.175278 0.768298 -0.615626
vn -0.018761 0.780489 -0.624888
vn -0.277540 0.959073 -0.056132
vn 0.007215 0.989540 0.144078
vn -0.018761 0.780489 -0.624888
vn -0.544899 0.691070 -0.474875
vn -0.268078 0.203092 -0.941747
vn -0.277540 0.959073 -0.056132
vn -0.544899 0.691070 -0.474875
vn -0.961435 0.083125 -0.262170
vn 0.464451 0.863888 0.194890
vn 0.640298 0.757390 -0.127976
vn 0.303179 0.851434 -0.427951
vn 0.090238 0.867921 0.488437
vn 0.464451 0.863888 0.194890
vn 0.066079 0.873944 -0.481514
vn 0.178713 0.918872 -0.351761
vn -0.115454 0.740818 0.661709
vn 0.090238 0.867921 0.488437
vn 0.178713 0.918872 -0.351761
vn 0.316142 0.809771 0.494293
vn -0.112675 0.665240 0.738078
vn -0.115454 0.740818 0.661709
vn 0.316142 0.809771 0.494293
vn 0.344541 0.737948 0.580280
vn 0.237804 0.783229 -0.574457
vn -0.239695 0.853994 -0.461781
vn -0.069590 0.891633 -0.447379
vn 0.287772 -0.202500 0.936046
vn -0.367225 0.874091 0.317979
vn -0.324920 -0.182438 0.927978
vn 0.229856 0.300540 0.925658
vn -0.033291 0.965010 0.260093
vn -0.142980 0.907545 0.394865
vn 0.251146 0.312257 0.916199
vn 0.339415 0.294050 0.893494
vn -0.183148 0.818519 0.544504
vn -0.033291 0.965010 0.260093
vn 0.229856 0.300540 0.925658
vn 0.221128 0.186281 0.957289
vn -0.031352 0.697613 0.715788
vn -0.183148 0.818519 0.544504
vn 0.339415 0.294050 0.893494
vn 0.223049 0.535969 0.814240
vn -0.031352 0.697613 0.715788
vn 0.221128 0.186281 0.957289
vn 0.292635 0.905206 0.308167
vn 0.090649 0.898133 0.430280
vn 0.223049 0.535969 0.814240
vn 0.245138 0.867400 0.433041
vn 0.245138 0.867400 0.433041
vn 0.170065 0.983040 -0.068625
vn 0.292635 0.905206 0.308167
vn -0.128173 0.879724 -0.457883
vn -0.277540 0.959073 -0.056132
vn -0.268078 0.203092 -0.941747
vn -0.535297 0.842351 -0.062469
vn -0.128173 0.879724 -0.457883
vn -0.268078 0.203092 -0.941747
vn 0.105746 0.198641 -0.974351
vn -0.436638 0.888513 0.141042
vn -0.535297 0.842351 -0.062469
vn 0.105746 0.198641 -0.974351
vn -0.036419 0.622839 -0.781502
vn -0.727530 0.243621 0.641365
vn -0.658441 0.545935 0.518083
vn -0.535297 0.842351 -0.062469
vn 0.090649 0.898133 0.430280
vn -0.031352 0.697613 0.715788
vn 0.223049 0.535969 0.814240
vn -0.548603 0.825060 0.135317
vn -0.363728 0.873905 -0.322478
vn -0.395845 0.850204 -0.347073
vn -0.367225 0.874091 0.317979
vn -0.142980 0.907545 0.394865
vn -0.363728 0.873905 -0.322478
vn -0.886128 0.119341 -0.447812
vn 0.251146 0.312257 0.916199
vn -0.142980 0.907545 0.394865
vn -0.367225 0.874091 0.317979
vn 0.287772 -0.202500 0.936046
vn 0.080818 0.932322 -0.352484
vn 0.076271 0.934640 -0.347319
vn 0.101324 0.849376 -0.517970
vn 0.201218 0.764757 -0.612093
vn -0.751565 0.155338 -0.641109
vn -0.367225 0.874091 0.317979
vn -0.886128 0.119341 -0.447812
vn -0.324920 -0.182438 0.927978
vn -0.367225 0.874091 0.317979
vn -0.525974 0.816044 0.239633
vn -0.620133 0.497989 0.606170
vn -0.330882 0.943330 0.025431
vn -0.627917 0.639164 0.444061
vn -0.492043 0.497610 0.714338
vn -0.669071 0.575208 0.470616
vn -0.123289 0.992277 -0.013627
vn -0.330882 0.943330 0.025431
vn -0.620133 0.497989 0.606170
vn -0.239695 0.853994 -0.461781
vn -0.123289 0.992277 -0.013627
vn -0.669071 0.575208 0.470616
vn -0.584102 0.738063 -0.337770
vn -0.069590 0.891633 -0.447379
vn -0.239695 0.853994 -0.461781
vn -0.584102 0.738063 -0.337770
vn -0.232426 0.890422 -0.391315
vn -0.232426 0.890422 -0.391315
vn 0.170065 0.983040 -0.068625
vn -0.069590 0.891633 -0.447379
vn -0.608115 0.781849 0.137508
vn -0.291172 0.908746 -0.298999
vn 0.037830 0.828689 -0.558430
vn -0.627917 0.639164 0.444061
vn -0.330882 0.943330 0.025431
vn -0.291172 0.908746 -0.298999
vn -0.724801 0.569422 0.387842
vn -0.724801 0.569422 0.387842
vn -0.291172 0.908746 -0.298999
vn -0.608115 0.781849 0.137508
vn -0.003192 -0.539680 -0.841864
vn 0.395563 -0.355374 -0.846900
vn -0.339311 -0.697084 -0.631618
vn 0.057008 -0.915401 -0.398487
vn -0.167651 -0.911724 -0.375037
vn -0.278532 -0.647044 -0.709756
vn 0.137115 -0.833331 -0.535498
vn -0.253769 -0.525833 0.811850
vn -0.726527 -0.456874 0.513248
vn -0.694845 -0.667893 0.266664
vn -0.238170 -0.828571 0.506700
vn -0.008661 -0.584714 0.811194
vn -0.253769 -0.525833 0.811850
vn -0.238170 -0.828571 0.506700
vn -0.022795 -0.834485 0.550559
vn -0.747906 -0.435911 0.500618
vn -0.488613 -0.844833 -0.217979
vn -0.582029 -0.716106 -0.385272
vn -0.726527 -0.456874 0.513248
vn -0.747906 -0.435911 0.500618
vn -0.694845 -0.667893 0.266664
vn -0.357098 -0.896233 0.263150
vn -0.594053 -0.796968 -0.109285
vn -0.008661 -0.584714 0.811194
vn -0.022795 -0.834485 0.550559
vn -0.091823 -0.985328 -0.143864
vn -0.106148 -0.405957 -0.907707
vn -0.594053 -0.796968 -0.109285
vn -0.236348 -0.955396 0.177084
vn -0.278532 -0.647044 -0.709756
vn -0.167651 -0.911724 -0.375037
vn -0.211793 -0.449433 -0.867844
vn 0.385733 -0.349823 -0.853718
vn -0.171879 -0.581954 -0.794850
vn -0.093159 -0.921010 -0.378235
vn 0.589608 -0.449472 -0.671072
vn -0.384819 -0.855242 -0.347096
vn 0.395563 -0.355374 -0.846900
vn 0.589608 -0.449472 -0.671072
vn -0.093159 -0.921010 -0.378235
vn -0.339311 -0.697084 -0.631618
vn 0.395563 -0.355374 -0.846900
vn -0.384819 -0.855242 -0.347096
vn -0.409475 -0.651693 -0.638457
vn -0.106148 -0.405957 -0.907707
vn -0.091823 -0.985328 -0.143864
vn -0.199615 -0.979867 0.003933
vn -0.574854 -0.812399 -0.097726
vn -0.751565 0.155338 -0.641109
vn -0.420624 -0.905816 -0.050722
vn -0.409475 -0.651693 -0.638457
vn -0.082527 -0.572743 -0.815570
vn -0.106148 -0.405957 -0.907707
vn -0.236348 -0.955396 0.177084
vn -0.594053 -0.796968 -0.109285
vn -0.357098 -0.896233 0.263150
vn -0.079904 -0.921333 0.380475
vn 0.053087 -0.952871 0.298694
vn -0.078136 -0.952549 -0.294185
vn 0.110170 -0.915391 -0.387197
vn -0.155972 -0.632295 0.758864
vn 0.199173 -0.568238 0.798395
vn 0.182182 -0.829150 0.528508
vn -0.108753 -0.813724 0.570987
vn -0.108753 -0.813724 0.570987
vn -0.027177 -0.996477 -0.079340
vn -0.019697 -0.986627 -0.161798
vn -0.218338 -0.860880 0.459581
vn -0.218338 -0.860880 0.459581
vn -0.019697 -0.986627 -0.161798
vn 0.012432 -0.972897 -0.230905
vn -0.122548 -0.915628 0.382895
vn 0.098717 -0.686137 -0.720743
vn 0.122095 -0.606060 -0.785993
vn 0.244069 -0.615193 -0.749645
vn 0.195796 -0.597817 -0.777354
vn 0.113754 -0.675534 -0.728501
vn 0.133244 -0.521825 -0.842582
vn 0.122095 -0.606060 -0.785993
vn 0.098717 -0.686137 -0.720743
vn 0.034710 -0.613745 -0.788741
vn 0.107442 -0.385481 -0.916439
vn 0.140126 -0.357427 -0.923369
vn 0.137115 -0.833331 -0.535498
vn 0.107442 -0.385481 -0.916439
vn 0.034710 -0.613745 -0.788741
vn -0.028431 -0.542807 -0.839376
vn 0.385733 -0.349823 -0.853718
vn 0.107442 -0.385481 -0.916439
vn 0.137115 -0.833331 -0.535498
vn -0.278532 -0.647044 -0.709756
vn -0.211793 -0.449433 -0.867844
vn -0.221895 -0.218689 -0.950230
vn -0.621486 -0.508513 -0.595962
vn -0.056141 -0.465930 -0.883039
vn -0.049002 -0.148665 -0.987673
vn -0.221895 -0.218689 -0.950230
vn -0.211793 -0.449433 -0.867844
vn -0.578012 -0.413315 -0.703614
vn -0.526733 0.187513 -0.829090
vn -0.049002 -0.148665 -0.987673
vn -0.056141 -0.465930 -0.883039
vn -0.961435 0.083125 -0.262170
vn -0.526733 0.187513 -0.829090
vn -0.578012 -0.413315 -0.703614
vn 0.012432 -0.972897 -0.230905
vn 0.098717 -0.686137 -0.720743
vn 0.195796 -0.597817 -0.777354
vn 0.109332 -0.936599 -0.332909
vn -0.019697 -0.986627 -0.161798
vn 0.113754 -0.675534 -0.728501
vn 0.098717 -0.686137 -0.720743
vn 0.012432 -0.972897 -0.230905
vn -0.027177 -0.996477 -0.079340
vn 0.034710 -0.613745 -0.788741
vn 0.113754 -0.675534 -0.728501
vn -0.019697 -0.986627 -0.161798
vn 0.188390 -0.981105 0.044072
vn 0.137115 -0.833331 -0.535498
vn 0.034710 -0.613745 -0.788741
vn -0.027177 -0.996477 -0.079340
vn -0.122548 -0.915628 0.382895
vn 0.012432 -0.972897 -0.230905
vn 0.109332 -0.936599 -0.332909
vn -0.075550 -0.929689 0.360514
vn 0.570001 -0.772320 -0.280394
vn 0.690957 -0.700298 0.179332
vn 0.503192 -0.863634 0.030577
vn 0.382761 -0.903752 0.191643
vn 0.509769 -0.532974 -0.675333
vn 0.774170 -0.632610 0.021572
vn 0.570001 -0.772320 -0.280394
vn -0.075550 -0.929689 0.360514
vn 0.109332 -0.936599 -0.332909
vn 0.570001 -0.772320 -0.280394
vn 0.382761 -0.903752 0.191643
vn 0.195796 -0.597817 -0.777354
vn 0.389880 -0.615255 -0.685168
vn 0.509769 -0.532974 -0.675333
vn 0.570001 -0.772320 -0.280394
vn 0.109332 -0.936599 -0.332909
vn 0.389880 -0.615255 -0.685168
vn 0.451105 -0.709757 -0.541063
vn 0.509769 -0.532974 -0.675333
vn -0.085812 -0.779185 0.620892
vn -0.355424 -0.789141 0.500930
vn -0.058221 -0.977119 0.204569
vn -0.004684 -0.988105 -0.153711
vn -0.022149 -0.758484 0.651315
vn -0.085812 -0.779185 0.620892
vn -0.004684 -0.988105 -0.153711
vn -0.078136 -0.952549 -0.294185
vn 0.236456 -0.968352 -0.079892
vn 0.057008 -0.915401 -0.398487
vn 0.137115 -0.833331 -0.535498
vn -0.357098 -0.896233 0.263150
vn -0.167651 -0.911724 -0.375037
vn 0.033773 -0.998730 0.037395
vn -0.079904 -0.921333 0.380475
vn -0.167651 -0.911724 -0.375037
vn -0.357098 -0.896233 0.263150
vn -0.022795 -0.834485 0.550559
vn -0.051372 -0.964091 -0.260555
vn -0.238170 -0.828571 0.506700
vn -0.331491 -0.840364 -0.428838
vn -0.051372 -0.964091 -0.260555
vn -0.022795 -0.834485 0.550559
vn -0.694845 -0.667893 0.266664
vn -0.173042 -0.616813 -0.767853
vn -0.331491 -0.840364 -0.428838
vn -0.238170 -0.828571 0.506700
vn -0.582029 -0.716106 -0.385272
vn -0.173042 -0.616813 -0.767853
vn -0.694845 -0.667893 0.266664
vn -0.303262 -0.740279 0.600016
vn -0.155972 -0.632295 0.758864
vn -0.108753 -0.813724 0.570987
vn -0.218338 -0.860880 0.459581
vn -0.189334 -0.834624 0.517259
vn -0.303262 -0.740279 0.600016
vn -0.218338 -0.860880 0.459581
vn -0.122548 -0.915628 0.382895
vn -0.355424 -0.789141 0.500930
vn -0.189334 -0.834624 0.517259
vn -0.122548 -0.915628 0.382895
vn -0.075550 -0.929689 0.360514
vn -0.355424 -0.789141 0.500930
vn -0.075550 -0.929689 0.360514
vn -0.058221 -0.977119 0.204569
vn 0.503192 -0.863634 0.030577
vn 0.188518 -0.860696 0.472930
vn 0.349952 -0.935450 0.049673
vn 0.382761 -0.903752 0.191643
vn 0.570001 -0.772320 -0.280394
vn 0.774170 -0.632610 0.021572
vn 0.690957 -0.700298 0.179332
vn 0.182182 -0.829150 0.528508
vn 0.188390 -0.981105 0.044072
vn -0.027177 -0.996477 -0.079340
vn -0.108753 -0.813724 0.570987
vn -0.167651 -0.911724 -0.375037
vn 0.057008 -0.915401 -0.398487
vn 0.236456 -0.968352 -0.079892
vn 0.033773 -0.998730 0.037395
vn -0.051372 -0.964091 -0.260555
vn -0.056141 -0.465930 -0.883039
vn -0.211793 -0.449433 -0.867844
vn -0.167651 -0.911724 -0.375037
vn -0.331491 -0.840364 -0.428838
vn -0.578012 -0.413315 -0.703614
vn -0.056141 -0.465930 -0.883039
vn -0.051372 -0.964091 -0.260555
vn -0.268078 0.203092 -0.941747
vn -0.961435 0.083125 -0.262170
vn -0.578012 -0.413315 -0.703614
vn -0.331491 -0.840364 -0.428838
vn -0.078136 -0.952549 -0.294185
vn -0.252340 -0.352706 -0.901068
vn -0.179965 -0.592290 -0.785369
vn -0.004684 -0.988105 -0.153711
vn 0.081379 -0.534233 -0.841411
vn -0.252340 -0.352706 -0.901068
vn -0.078136 -0.952549 -0.294185
vn -0.058221 -0.977119 0.204569
vn 0.349952 -0.935450 0.049673
vn 0.081379 -0.534233 -0.841411
vn -0.004684 -0.988105 -0.153711
vn -0.075550 -0.929689 0.360514
vn 0.382761 -0.903752 0.191643
vn 0.349952 -0.935450 0.049673
vn -0.058221 -0.977119 0.204569
vn 0.385733 -0.349823 -0.853718
vn -0.028431 -0.542807 -0.839376
vn -0.171879 -0.581954 -0.794850
vn 0.287772 -0.202500 0.936046
vn -0.324920 -0.182438 0.927978
vn -0.420624 -0.905816 -0.050722
vn 0.201164 -0.655891 0.727557
vn 0.221862 -0.664087 0.713979
vn -0.199615 -0.979867 0.003933
vn -0.091823 -0.985328 -0.143864
vn 0.311299 -0.643475 0.699309
vn 0.201164 -0.655891 0.727557
vn -0.091823 -0.985328 -0.143864
vn -0.236348 -0.955396 0.177084
vn 0.199173 -0.568238 0.798395
vn 0.311299 -0.643475 0.699309
vn -0.236348 -0.955396 0.177084
vn -0.079904 -0.921333 0.380475
vn 0.182182 -0.829150 0.528508
vn 0.199173 -0.568238 0.798395
vn -0.079904 -0.921333 0.380475
vn 0.236456 -0.968352 -0.079892
vn 0.188390 -0.981105 0.044072
vn 0.182182 -0.829150 0.528508
vn 0.033773 -0.998730 0.037395
vn 0.188390 -0.981105 0.044072
vn 0.236456 -0.968352 -0.079892
vn 0.137115 -0.833331 -0.535498
vn -0.173042 -0.616813 -0.767853
vn -0.268078 0.203092 -0.941747
vn -0.331491 -0.840364 -0.428838
vn -0.582029 -0.716106 -0.385272
vn 0.105746 0.198641 -0.974351
vn -0.268078 0.203092 -0.941747
vn -0.173042 -0.616813 -0.767853
vn -0.488613 -0.844833 -0.217979
vn -0.062838 -0.258316 -0.964015
vn 0.105746 0.198641 -0.974351
vn -0.582029 -0.716106 -0.385272
vn -0.747906 -0.435911 0.500618
vn -0.582029 -0.716106 -0.385272
vn -0.694845 -0.667893 0.266664
vn 0.033773 -0.998730 0.037395
vn 0.182182 -0.829150 0.528508
vn -0.079904 -0.921333 0.380475
vn -0.409475 -0.651693 -0.638457
vn -0.596658 -0.778019 -0.196686
vn -0.439842 -0.618384 -0.651261
vn -0.420624 -0.905816 -0.050722
vn -0.886128 0.119341 -0.447812
vn -0.409475 -0.651693 -0.638457
vn -0.199615 -0.979867 0.003933
vn 0.221862 -0.664087 0.713979
vn 0.287772 -0.202500 0.936046
vn -0.420624 -0.905816 -0.050722
vn -0.199615 -0.979867 0.003933
vn 0.034710 -0.613745 -0.788741
vn 0.140126 -0.357427 -0.923369
vn 0.133244 -0.521825 -0.842582
vn 0.113754 -0.675534 -0.728501
vn -0.751565 0.155338 -0.641109
vn -0.886128 0.119341 -0.447812
vn -0.420624 -0.905816 -0.050722
vn -0.324920 -0.182438 0.927978
vn -0.574854 -0.812399 -0.097726
vn -0.420624 -0.905816 -0.050722
vn -0.654902 -0.661112 0.366107
vn -0.528300 -0.711048 0.464016
vn -0.668860 -0.725665 0.161360
vn -0.384819 -0.855242 -0.347096
vn -0.706573 -0.675255 0.211627
vn -0.654902 -0.661112 0.366107
vn -0.384819 -0.855242 -0.347096
vn -0.093159 -0.921010 -0.378235
vn -0.171879 -0.581954 -0.794850
vn -0.621486 -0.508513 -0.595962
vn -0.706573 -0.675255 0.211627
vn -0.093159 -0.921010 -0.378235
vn -0.028431 -0.542807 -0.839376
vn -0.278532 -0.647044 -0.709756
vn -0.621486 -0.508513 -0.595962
vn -0.171879 -0.581954 -0.794850
vn -0.278532 -0.647044 -0.709756
vn -0.028431 -0.542807 -0.839376
vn 0.137115 -0.833331 -0.535498
vn -0.653618 -0.735870 -0.176857
vn -0.003192 -0.539680 -0.841864
vn -0.339311 -0.697084 -0.631618
vn -0.668860 -0.725665 0.161360
vn -0.760889 -0.633911 0.138581
vn -0.339311 -0.697084 -0.631618
vn -0.384819 -0.855242 -0.347096
vn -0.760889 -0.633911 0.138581
vn -0.653618 -0.735870 -0.176857
vn -0.339311 -0.697084 -0.631618
vn 0.396876 0.898055 -0.189704
vn 0.255804 0.913678 -0.315843
vn 0.507593 0.806130 -0.304146
vn 0.244069 -0.615193 -0.749645
vn 0.451105 -0.709757 -0.541063
vn 0.389880 -0.615255 -0.685168
vn 0.195796 -0.597817 -0.777354
vn -0.886128 0.119341 -0.447812
vn -0.363728 0.873905 -0.322478
vn -0.548603 0.825060 0.135317
vn -0.395845 0.850204 -0.347073
vn -0.363728 0.873905 -0.322478
vn -0.039788 0.853076 -0.520267
vn -0.886128 0.119341 -0.447812
vn -0.596658 -0.778019 -0.196686
vn -0.409475 -0.651693 -0.638457
vn -0.439842 -0.618384 -0.651261
vn -0.082527 -0.572743 -0.815570
vn -0.409475 -0.651693 -0.638457
vn 0.600827 0.451264 0.659824
vn 0.640298 0.757390 -0.127976
vn 0.464451 0.863888 0.194890
vn 0.053087 -0.952871 0.298694
vn -0.022149 -0.758484 0.651315
vn -0.078136 -0.952549 -0.294185
vn 0.464451 0.863888 0.194890
vn 0.303179 0.851434 -0.427951
vn 0.066079 0.873944 -0.481514
vn -0.078136 -0.952549 -0.294185
vn -0.179965 -0.592290 -0.785369
vn 0.110170 -0.915391 -0.387197
s off
g WoodenLog1
usemtl PropsPacked:blinn1SG
f 32/1/1 107/2/2 33/3/3
f 52/4/4 58/5/5 59/6/6 13/7/7
f 15/8/8 75/9/9 76/10/10 18/11/11
f 47/12/12 74/13/13 75/9/14 15/8/15
f 19/14/16 96/15/17 20/16/18
f 18/11/19 76/10/20 19/14/21
f 73/17/22 74/13/23 47/12/24 12/18/25
f 90/19/26 91/20/27 12/18/28 11/21/29
f 59/6/30 60/22/31 13/7/32
f 29/23/33 34/24/34 104/25/35 105/26/36
f 103/27/37 104/25/38 34/24/39 33/3/40
f 107/2/41 103/27/42 33/3/43
f 98/28/44 99/29/45 90/19/46 11/21/47
f 88/30/48 89/31/49 7/32/50
f 10/33/51 98/28/52 11/21/53
f 91/20/54 92/34/55 73/17/56 12/18/57
f 36/35/58 85/36/59 72/37/60
f 3/38/61 77/39/62 82/40/63 4/41/64
f 77/39/65 78/42/66 65/43/67 66/44/68
f 78/42/69 79/45/70 64/46/71 65/43/72
f 55/47/73 70/48/74 71/49/75 17/50/76
f 56/51/77 55/47/78 17/50/79 16/52/80
f 57/53/81 101/54/82 14/55/83
f 58/5/84 57/53/85 14/55/86
f 106/56/87 58/5/88 14/55/89 29/23/90
f 59/6/91 26/57/92 25/58/93 60/22/94
f 61/59/95 60/22/96 25/58/97 24/60/98
f 62/61/99 61/59/100 24/60/101 23/62/102
f 63/63/103 62/61/104 23/62/105
f 64/46/106 69/64/107 70/48/108 55/47/109
f 65/43/110 64/46/111 55/47/112 56/51/113
f 66/44/114 65/43/115 56/51/116 57/53/117
f 53/65/118 66/44/119 57/53/120 58/5/121
f 79/45/122 80/66/123 69/64/124 64/46/125
f 68/67/126 81/68/127 40/69/128 39/70/129
f 37/71/130 68/67/131 38/72/132
f 80/66/133 81/68/134 68/67/135 69/64/136
f 70/48/137 69/64/138 68/67/139 37/71/140
f 71/49/141 70/48/142 35/73/143
f 1/74/144 86/75/145 87/76/146 67/77/147
f 72/37/148 85/36/149 86/75/150 1/74/151
f 94/78/152 58/5/153 52/4/154
f 73/17/155 92/34/156 93/79/157 13/7/158
f 13/7/159 83/80/160 74/13/161 73/17/162
f 75/9/163 74/13/164 83/80/165 84/81/166
f 76/10/167 75/9/168 84/81/169 95/82/170
f 96/15/171 76/10/172 95/82/173
f 2/83/174 78/42/175 77/39/176 3/38/177
f 54/84/178 79/45/179 78/42/180 2/83/181
f 67/77/182 80/66/183 79/45/184 54/84/185
f 67/77/186 87/76/187 80/66/188
f 40/69/189 81/68/190 42/85/191 41/86/192
f 68/67/193 39/70/194 38/72/195
f 82/40/196 77/39/197 66/44/198 53/65/199
f 13/7/200 93/79/201 94/78/202 52/4/203
f 83/80/204 13/7/205 60/22/206 61/59/207
f 84/81/208 83/80/209 61/59/210 62/61/211
f 22/87/212 84/81/213 62/61/214 63/63/215
f 85/36/216 46/88/217 45/89/218
f 86/75/219 85/36/220 44/90/221 43/91/222
f 87/76/223 86/75/224 43/91/225 42/85/226
f 80/66/227 87/76/228 42/85/229 81/68/230
f 29/23/231 105/26/232 106/56/233
f 51/92/234 89/31/235 6/93/236
f 50/94/237 90/19/238 99/29/239 100/95/240
f 5/96/241 91/20/242 90/19/243 50/94/244
f 4/41/245 92/34/246 91/20/247 5/96/248
f 82/40/249 92/34/250 4/41/251
f 94/78/252 93/79/253 82/40/254 53/65/255
f 53/65/256 58/5/257 94/78/258
f 95/82/259 84/81/260 22/87/261
f 96/15/262 95/82/263 22/87/264 48/97/265
f 20/16/266 96/15/267 48/97/268 21/98/269
f 19/14/270 76/10/271 96/15/272
f 93/79/273 92/34/274 82/40/275
f 9/99/276 98/28/277 97/100/278
f 89/31/279 99/29/280 98/28/281 8/101/282
f 100/95/283 99/29/284 89/31/285 51/92/286
f 57/53/287 56/51/288 16/52/289 101/54/290
f 7/32/291 89/31/292 8/101/293
f 6/93/294 89/31/295 88/30/296
f 27/102/297 103/27/298 102/103/299 28/104/300
f 49/105/301 104/25/302 103/27/303 27/102/304
f 105/26/305 104/25/306 49/105/307 26/57/308
f 106/56/309 105/26/310 26/57/311 59/6/312
f 59/6/313 58/5/314 106/56/315
f 31/106/316 107/2/317 32/1/318
f 102/103/319 103/27/320 107/2/321 30/107/322
f 30/107/323 107/2/324 31/106/325
f 32/1/326 33/3/327 154/108/328
f 109/109/329 108/110/330 115/111/331 114/112/332
f 15/8/333 18/11/334 128/113/335 127/114/336
f 47/12/337 15/8/338 127/114/339 126/115/340
f 19/14/341 20/16/342 147/116/343
f 18/11/344 19/14/345 128/113/346
f 125/117/347 12/18/348 47/12/349 126/115/350
f 141/118/351 11/21/352 12/18/353 142/119/354
f 115/111/355 108/110/356 116/120/357
f 29/23/358 152/121/359 151/122/360 34/24/361
f 150/123/362 33/3/363 34/24/364 151/122/365
f 154/108/366 33/3/367 150/123/368
f 148/124/369 11/21/370 141/118/371 149/125/372
f 88/30/373 7/32/374 140/126/375
f 148/124/376 10/33/377 11/21/378
f 142/119/379 12/18/380 125/117/381 143/127/382
f 36/128/383 137/129/384 46/130/385
f 3/38/386 4/41/387 134/131/388 129/132/389
f 129/132/390 121/133/391 120/134/392 130/135/393
f 130/135/394 120/134/395 119/136/396 131/137/397
f 111/138/398 17/50/399 71/49/400 124/139/401
f 112/140/402 16/52/403 17/50/404 111/138/405
f 113/141/406 14/55/407 101/54/408
f 114/112/409 14/55/410 113/141/411
f 153/142/412 29/23/413 14/55/414 114/112/415
f 115/111/416 116/120/417 25/58/418 26/57/419
f 117/143/420 24/60/421 25/58/422 116/120/423
f 118/144/424 23/62/425 24/60/426 117/143/427
f 63/63/428 23/62/429 118/144/430
f 119/136/431 111/138/432 124/139/433 123/145/434
f 120/134/435 112/140/436 111/138/437 119/136/438
f 121/133/439 113/141/440 112/140/441 120/134/442
f 110/146/443 114/112/444 113/141/445 121/133/446
f 131/137/447 119/136/448 123/145/449 132/147/450
f 122/148/451 39/70/452 40/69/453 133/149/454
f 37/71/455 38/72/456 122/148/457
f 132/147/458 123/145/459 122/148/460 133/149/461
f 124/139/462 155/150/463 37/71/464 122/148/465 123/145/466
f 155/150/467 35/73/468 37/71/469
f 1/74/470 67/77/471 139/151/472 138/152/473
f 72/153/474 1/74/475 138/152/476 137/129/477
f 145/154/478 109/109/479 114/112/480
f 125/117/481 108/110/482 144/155/483 143/127/484
f 108/110/485 125/117/486 126/115/487 135/156/488
f 127/114/489 136/157/490 135/156/491 126/115/492
f 128/113/493 146/158/494 136/157/495 127/114/496
f 147/116/497 146/158/498 128/113/499
f 2/83/500 3/38/501 129/132/502 130/135/503
f 54/84/504 2/83/505 130/135/506 131/137/507
f 67/77/508 54/84/509 131/137/510 132/147/511
f 67/77/512 132/147/513 139/151/514
f 40/69/515 41/86/516 42/85/517 133/149/518
f 122/148/519 38/72/520 39/70/521
f 134/131/522 110/146/523 121/133/524 129/132/525
f 108/110/526 109/109/527 145/154/528 144/155/529
f 135/156/530 117/143/531 116/120/532 108/110/533
f 136/157/534 118/144/535 117/143/536 135/156/537
f 22/87/538 63/63/539 118/144/540 136/157/541
f 137/129/542 44/159/543 45/160/544
f 138/152/545 43/91/546 44/159/547 137/129/548
f 139/151/549 42/85/550 43/91/551 138/152/552
f 132/147/553 133/149/554 42/85/555 139/151/556
f 29/23/557 153/142/558 152/121/559
f 51/92/560 6/93/561 140/126/562
f 50/94/563 100/95/564 149/125/565 141/118/566
f 5/96/567 50/94/568 141/118/569 142/119/570
f 4/41/571 5/96/572 142/119/573 143/127/574
f 134/131/575 4/41/576 143/127/577
f 145/154/578 110/146/579 134/131/580 144/155/581
f 110/146/582 145/154/583 114/112/584
f 146/158/585 22/87/586 136/157/587
f 147/116/588 48/97/589 22/87/590 146/158/591
f 20/16/592 21/98/593 48/97/594 147/116/595
f 19/14/596 147/116/597 128/113/598
f 144/155/599 134/131/600 143/127/601
f 148/124/602 9/99/603 97/100/604
f 140/126/605 8/101/606 148/124/607 149/125/608
f 100/95/609 51/92/610 140/126/611 149/125/612
f 113/141/613 101/54/614 16/52/615 112/140/616
f 7/32/617 8/101/618 140/126/619
f 6/93/620 88/30/621 140/126/622
f 27/102/623 28/104/624 102/103/625 150/123/626
f 49/105/627 27/102/628 150/123/629 151/122/630
f 152/121/631 26/57/632 49/105/633 151/122/634
f 153/142/635 115/111/636 26/57/637 152/121/638
f 115/111/639 153/142/640 114/112/641
f 31/106/642 32/1/643 154/108/644
f 102/103/645 30/107/646 154/108/647 150/123/648
f 30/107/649 31/106/650 154/108/651
f 35/73/652 70/48/653 37/71/654
f 71/49/655 35/73/656 155/150/657 124/139/658
f 8/101/659 98/28/660 9/99/661
f 97/100/662 98/28/663 10/33/664
f 8/101/665 9/99/666 148/124/667
f 97/100/668 10/33/669 148/124/670
f 36/35/671 46/88/672 85/36/673
f 36/128/674 72/153/675 137/129/676
f 85/36/677 45/89/678 44/90/679
f 137/129/680 45/160/681 46/130/682
